﻿Log file open, 08/22/22 19:38:48
LogWindows: Failed to load 'aqProf.dll' (GetLastError=126)
LogWindows: File 'aqProf.dll' does not exist
LogProfilingDebugging: Loading WinPixEventRuntime.dll for PIX profiling (from ../../../Engine/Binaries/ThirdParty/Windows/WinPixEventRuntime/x64).
LogWindows: Failed to load 'VtuneApi.dll' (GetLastError=126)
LogWindows: File 'VtuneApi.dll' does not exist
LogWindows: Failed to load 'VtuneApi32e.dll' (GetLastError=126)
LogWindows: File 'VtuneApi32e.dll' does not exist
LogWindows: Started CrashReportClient (pid=9636)
LogConsoleResponse: Display: Failed to find resolution value strings in scalability ini. Falling back to default.
LogConsoleResponse: Display: Failed to find resolution value strings in scalability ini. Falling back to default.
LogInit: Display: Running engine for game: Rock_Sheep
LogCore: UnrealTraceServer: Trace store launch successful
LogCsvProfiler: Display: Metadata set : platform="Windows"
LogCsvProfiler: Display: Metadata set : config="Development"
LogCsvProfiler: Display: Metadata set : buildversion="++UE5+Release-5.0-CL-20979098"
LogCsvProfiler: Display: Metadata set : engineversion="5.0.3-20979098+++UE5+Release-5.0"
LogCsvProfiler: Display: Metadata set : commandline="" "C:/_Projects/Unreal Engine/rocksheep/Rock_Sheep.uproject"""
LogCsvProfiler: Display: Metadata set : os="Windows 11 (21H2) [10.0.22000.856] "
LogCsvProfiler: Display: Metadata set : cpu="AuthenticAMD|AMD Ryzen 7 5800H with Radeon Graphics"
LogCsvProfiler: Display: Metadata set : pgoenabled="0"
LogCsvProfiler: Display: Metadata set : loginid="fefc6859470ce5577c535c89c24fc987"
LogCsvProfiler: Display: Metadata set : llm="0"
LogPlatformFile: Not using cached read wrapper
LogStats: Stats thread started at 0.266244
LogICUInternationalization: ICU TimeZone Detection - Raw Offset: +0:00, Platform Override: ''
LogInit: Session CrashGUID >====================================================
         Session CrashGUID >   UECC-Windows-9181F3BC4859C667719C699D044E82A9
         Session CrashGUID >====================================================
LogConfig: Display: Loading HoloLens ini files took 0.03 seconds
LogConfig: Display: Loading Mac ini files took 0.03 seconds
LogConfig: Display: Loading VulkanPC ini files took 0.03 seconds
LogConfig: Display: Loading Android ini files took 0.03 seconds
LogConfig: Display: Loading IOS ini files took 0.03 seconds
LogConfig: Display: Loading Windows ini files took 0.03 seconds
LogConfig: Display: Loading Unix ini files took 0.03 seconds
LogConfig: Display: Loading TVOS ini files took 0.04 seconds
LogConfig: Display: Loading LinuxArm64 ini files took 0.04 seconds
LogConfig: Display: Loading Linux ini files took 0.04 seconds
LogPluginManager: Mounting Engine plugin Bridge
LogPluginManager: Mounting Engine plugin FastBuildController
LogPluginManager: Mounting Engine plugin MeshPainting
LogPluginManager: Mounting Engine plugin XGEController
LogPluginManager: Mounting Engine plugin AnimationModifierLibrary
LogPluginManager: Mounting Engine plugin BlendSpaceMotionAnalysis
LogPluginManager: Mounting Engine plugin OodleNetwork
LogPluginManager: Mounting Engine plugin ControlRigSpline
LogPluginManager: Mounting Engine plugin ControlRig
LogPluginManager: Mounting Engine plugin Paper2D
LogPluginManager: Mounting Engine plugin IKRig
LogPluginManager: Mounting Engine plugin CryptoKeys
LogPluginManager: Mounting Engine plugin CameraShakePreviewer
LogPluginManager: Mounting Engine plugin AnimationSharing
LogPluginManager: Mounting Engine plugin AISupport
LogPluginManager: Mounting Engine plugin DatasmithContent
LogPluginManager: Mounting Engine plugin EnvironmentQueryEditor
LogPluginManager: Mounting Engine plugin CodeLiteSourceCodeAccess
LogPluginManager: Mounting Engine plugin AssetManagerEditor
LogPluginManager: Mounting Engine plugin KDevelopSourceCodeAccess
LogPluginManager: Mounting Engine plugin GitSourceControl
LogPluginManager: Mounting Engine plugin NullSourceCodeAccess
LogPluginManager: Mounting Engine plugin PerforceSourceControl
LogPluginManager: Mounting Engine plugin CurveEditorTools
LogPluginManager: Mounting Engine plugin VariantManagerContent
LogPluginManager: Mounting Engine plugin PixWinPlugin
LogPluginManager: Mounting Engine plugin PlasticSourceControl
LogPluginManager: Mounting Engine plugin DataValidation
LogPluginManager: Mounting Engine plugin EditorDebugTools
LogPluginManager: Mounting Engine plugin CLionSourceCodeAccess
LogPluginManager: Mounting Engine plugin EditorScriptingUtilities
LogPluginManager: Mounting Engine plugin GameplayTagsEditor
LogPluginManager: Mounting Engine plugin FacialAnimation
LogPluginManager: Mounting Engine plugin MobileLauncherProfileWizard
LogPluginManager: Mounting Engine plugin MacGraphicsSwitching
LogPluginManager: Mounting Engine plugin GeometryMode
LogPluginManager: Mounting Engine plugin MaterialAnalyzer
LogPluginManager: Mounting Engine plugin SequencerAnimTools
LogPluginManager: Mounting Engine plugin ModelingToolsEditorMode
LogPluginManager: Mounting Engine plugin Niagara
LogPluginManager: Mounting Engine plugin PluginUtils
LogPluginManager: Mounting Engine plugin PropertyAccessNode
LogPluginManager: Mounting Engine plugin StylusInput
LogPluginManager: Mounting Engine plugin SubversionSourceControl
LogPluginManager: Mounting Engine plugin WorldPartitionHLODUtilities
LogPluginManager: Mounting Engine plugin TraceDataFilters
LogPluginManager: Mounting Engine plugin TextureFormatOodle
LogPluginManager: Mounting Engine plugin UObjectPlugin
LogPluginManager: Mounting Engine plugin RiderSourceCodeAccess
LogPluginManager: Mounting Engine plugin VisualStudioSourceCodeAccess
LogPluginManager: Mounting Engine plugin PluginBrowser
LogPluginManager: Mounting Engine plugin AlembicImporter
LogPluginManager: Mounting Engine plugin GameplayCameras
LogPluginManager: Mounting Engine plugin XCodeSourceCodeAccess
LogPluginManager: Mounting Engine plugin AndroidMedia
LogPluginManager: Mounting Engine plugin AvfMedia
LogPluginManager: Mounting Engine plugin VisualStudioCodeSourceCodeAccess
LogPluginManager: Mounting Engine plugin SpeedTreeImporter
LogPluginManager: Mounting Engine plugin ImgMedia
LogPluginManager: Mounting Engine plugin MediaCompositing
LogPluginManager: Mounting Engine plugin MediaPlayerEditor
LogPluginManager: Mounting Engine plugin WebMMedia
LogPluginManager: Mounting Engine plugin WmfMedia
LogPluginManager: Mounting Engine plugin ActorSequence
LogPluginManager: Mounting Engine plugin LevelSequenceEditor
LogPluginManager: Mounting Engine plugin MatineeToLevelSequence
LogPluginManager: Mounting Engine plugin TemplateSequence
LogPluginManager: Mounting Engine plugin AutomationUtils
LogPluginManager: Mounting Engine plugin BackChannel
LogPluginManager: Mounting Engine plugin ChaosCloth
LogPluginManager: Mounting Engine plugin LauncherChunkInstaller
LogPluginManager: Mounting Engine plugin SequencerScripting
LogPluginManager: Mounting Engine plugin ChaosClothEditor
LogPluginManager: Mounting Engine plugin ChaosSolverPlugin
LogPluginManager: Mounting Engine plugin ChaosNiagara
LogPluginManager: Mounting Engine plugin CharacterAI
LogPluginManager: Mounting Engine plugin ChaosEditor
LogPluginManager: Mounting Engine plugin FullBodyIK
LogPluginManager: Mounting Engine plugin TcpMessaging
LogPluginManager: Mounting Engine plugin UdpMessaging
LogPluginManager: Mounting Engine plugin ActorLayerUtilities
LogPluginManager: Mounting Engine plugin AndroidFileServer
LogPluginManager: Mounting Engine plugin AndroidMoviePlayer
LogPluginManager: Mounting Engine plugin AndroidPermission
LogPluginManager: Mounting Engine plugin AppleImageUtils
LogPluginManager: Mounting Engine plugin AppleMoviePlayer
LogPluginManager: Mounting Engine plugin ArchVisCharacter
LogPluginManager: Mounting Engine plugin AssetTags
LogPluginManager: Mounting Engine plugin AudioCapture
LogPluginManager: Mounting Engine plugin GeometryFlow
LogPluginManager: Mounting Engine plugin AudioSynesthesia
LogPluginManager: Mounting Engine plugin GeometryCollectionPlugin
LogPluginManager: Mounting Engine plugin ChunkDownloader
LogPluginManager: Mounting Engine plugin CustomMeshComponent
LogPluginManager: Mounting Engine plugin AndroidDeviceProfileSelector
LogPluginManager: Mounting Engine plugin CableComponent
LogPluginManager: Mounting Engine plugin ExampleDeviceProfileSelector
LogPluginManager: Mounting Engine plugin GeometryCache
LogPluginManager: Mounting Engine plugin MeshModelingToolsetExp
LogPluginManager: Mounting Engine plugin GeometryProcessing
LogPluginManager: Mounting Engine plugin OpenImageDenoise
LogPluginManager: Mounting Engine plugin PlanarCut
LogPluginManager: Mounting Engine plugin PlatformCrypto
LogPluginManager: Mounting Engine plugin ProxyLODPlugin
LogPluginManager: Mounting Engine plugin PythonScriptPlugin
LogPluginManager: Mounting Engine plugin SkeletalReduction
LogPluginManager: Mounting Engine plugin GoogleCloudMessaging
LogPluginManager: Mounting Engine plugin GooglePAD
LogPluginManager: Mounting Engine plugin HairStrands
LogPluginManager: Mounting Engine plugin IOSDeviceProfileSelector
LogPluginManager: Mounting Engine plugin LinuxDeviceProfileSelector
LogPluginManager: Mounting Engine plugin OnlineBase
LogPluginManager: Mounting Engine plugin MeshLODToolset
LogPluginManager: Mounting Engine plugin LocationServicesBPLibrary
LogPluginManager: Mounting Engine plugin OnlineSubsystem
LogPluginManager: Mounting Engine plugin MeshModelingToolset
LogPluginManager: Mounting Engine plugin OnlineSubsystemNull
LogPluginManager: Mounting Engine plugin OnlineSubsystemUtils
LogPluginManager: Mounting Engine plugin MobilePatchingUtils
LogPluginManager: Mounting Engine plugin ProceduralMeshComponent
LogPluginManager: Mounting Engine plugin PropertyAccessEditor
LogPluginManager: Mounting Engine plugin RuntimePhysXCooking
LogPluginManager: Mounting Engine plugin SignificanceManager
LogPluginManager: Mounting Engine plugin SoundFields
LogPluginManager: Mounting Engine plugin Synthesis
LogPluginManager: Mounting Engine plugin WebMMoviePlayer
LogPluginManager: Mounting Engine plugin ResonanceAudio
LogPluginManager: Mounting Engine plugin WindowsDeviceProfileSelector
LogPluginManager: Mounting Engine plugin WindowsMoviePlayer
LogPluginManager: Mounting Engine plugin ContentBrowserAssetDataSource
LogPluginManager: Mounting Engine plugin ContentBrowserClassDataSource
LogPluginManager: Mounting Engine plugin ContentBrowserFileDataSource
LogPluginManager: Mounting Engine plugin InterchangeEditor
LogPluginManager: Mounting Engine plugin Interchange
LogPluginManager: Mounting Engine plugin OnlineSubsystemGooglePlay
LogPluginManager: Mounting Engine plugin OnlineServices
LogPluginManager: Mounting Engine plugin OnlineSubsystemIOS
LogPackageName: Display: FPackageName: Mount point added: '../../Plugins/Bridge/Content/' mounted to '/Bridge/'
LogPackageName: Display: FPackageName: Mount point added: '../../Plugins/Animation/ControlRigSpline/Content/' mounted to '/ControlRigSpline/'
LogPackageName: Display: FPackageName: Mount point added: '../../Plugins/Animation/ControlRig/Content/' mounted to '/ControlRig/'
LogPackageName: Display: FPackageName: Mount point added: '../../Plugins/2D/Paper2D/Content/' mounted to '/Paper2D/'
LogPackageName: Display: FPackageName: Mount point added: '../../Plugins/Animation/IKRig/Content/' mounted to '/IKRig/'
LogPackageName: Display: FPackageName: Mount point added: '../../Plugins/Developer/AnimationSharing/Content/' mounted to '/AnimationSharing/'
LogPackageName: Display: FPackageName: Mount point added: '../../Plugins/Enterprise/DatasmithContent/Content/' mounted to '/DatasmithContent/'
LogPackageName: Display: FPackageName: Mount point added: '../../Plugins/Editor/GeometryMode/Content/' mounted to '/GeometryMode/'
LogPackageName: Display: FPackageName: Mount point added: '../../Plugins/Editor/ModelingToolsEditorMode/Content/' mounted to '/ModelingToolsEditorMode/'
LogPackageName: Display: FPackageName: Mount point added: '../../Plugins/FX/Niagara/Content/' mounted to '/Niagara/'
LogPackageName: Display: FPackageName: Mount point added: '../../Plugins/Editor/SpeedTreeImporter/Content/' mounted to '/SpeedTreeImporter/'
LogPackageName: Display: FPackageName: Mount point added: '../../Plugins/Media/MediaCompositing/Content/' mounted to '/MediaCompositing/'
LogPackageName: Display: FPackageName: Mount point added: '../../Plugins/MovieScene/SequencerScripting/Content/' mounted to '/SequencerScripting/'
LogPackageName: Display: FPackageName: Mount point added: '../../Plugins/Experimental/ChaosClothEditor/Content/' mounted to '/ChaosClothEditor/'
LogPackageName: Display: FPackageName: Mount point added: '../../Plugins/Experimental/ChaosSolverPlugin/Content/' mounted to '/ChaosSolverPlugin/'
LogPackageName: Display: FPackageName: Mount point added: '../../Plugins/Experimental/ChaosNiagara/Content/' mounted to '/ChaosNiagara/'
LogPackageName: Display: FPackageName: Mount point added: '../../Plugins/Experimental/FullBodyIK/Content/' mounted to '/FullBodyIK/'
LogPackageName: Display: FPackageName: Mount point added: '../../Plugins/Experimental/GeometryFlow/Content/' mounted to '/GeometryFlow/'
LogPackageName: Display: FPackageName: Mount point added: '../../Plugins/Runtime/AudioSynesthesia/Content/' mounted to '/AudioSynesthesia/'
LogPackageName: Display: FPackageName: Mount point added: '../../Plugins/Experimental/GeometryCollectionPlugin/Content/' mounted to '/GeometryCollectionPlugin/'
LogPackageName: Display: FPackageName: Mount point added: '../../Plugins/Experimental/MeshModelingToolsetExp/Content/' mounted to '/MeshModelingToolsetExp/'
LogPackageName: Display: FPackageName: Mount point added: '../../Plugins/Runtime/GeometryProcessing/Content/' mounted to '/GeometryProcessing/'
LogPackageName: Display: FPackageName: Mount point added: '../../Plugins/Experimental/PythonScriptPlugin/Content/' mounted to '/PythonScriptPlugin/'
LogPackageName: Display: FPackageName: Mount point added: '../../Plugins/Runtime/HairStrands/Content/' mounted to '/HairStrands/'
LogPackageName: Display: FPackageName: Mount point added: '../../Plugins/Experimental/MeshLODToolset/Content/' mounted to '/MeshLODToolset/'
LogPackageName: Display: FPackageName: Mount point added: '../../Plugins/Runtime/MeshModelingToolset/Content/' mounted to '/MeshModelingToolset/'
LogPackageName: Display: FPackageName: Mount point added: '../../Plugins/Runtime/Synthesis/Content/' mounted to '/Synthesis/'
LogPackageName: Display: FPackageName: Mount point added: '../../Plugins/Runtime/ResonanceAudio/Content/' mounted to '/ResonanceAudio/'
SourceControl: Source control is disabled
SourceControl: Source control is disabled
PixWinPlugin: PIX capture plugin failed to initialize! Check that the process is launched from PIX.
LogInit: Using libcurl 7.55.1-DEV
LogInit:  - built for x86_64-pc-win32
LogInit:  - supports SSL with OpenSSL/1.1.1
LogInit:  - supports HTTP deflate (compression) using libz 1.2.8
LogInit:  - other features:
LogInit:      CURL_VERSION_SSL
LogInit:      CURL_VERSION_LIBZ
LogInit:      CURL_VERSION_IPV6
LogInit:      CURL_VERSION_ASYNCHDNS
LogInit:      CURL_VERSION_LARGEFILE
LogInit:      CURL_VERSION_IDN
LogInit:  CurlRequestOptions (configurable via config and command line):
LogInit:  - bVerifyPeer = true  - Libcurl will verify peer certificate
LogInit:  - bUseHttpProxy = false  - Libcurl will NOT use HTTP proxy
LogInit:  - bDontReuseConnections = false  - Libcurl will reuse connections
LogInit:  - MaxHostConnections = 16  - Libcurl will limit the number of connections to a host
LogInit:  - LocalHostAddr = Default
LogInit:  - BufferSize = 65536
LogInit: WinSock: version 1.1 (2.2), MaxSocks=32767, MaxUdp=65467
LogOnline: OSS: Created online subsystem instance for: NULL
LogOnline: OSS: TryLoadSubsystemAndSetDefault: Loaded subsystem for module [NULL]
LogInit: Build: ++UE5+Release-5.0-CL-20979098
LogInit: Engine Version: 5.0.3-20979098+++UE5+Release-5.0
LogInit: Compatible Engine Version: 5.0.0-19505902+++UE5+Release-5.0
LogInit: Net CL: 19505902
LogInit: OS: Windows 11 (21H2) [10.0.22000.856] (), CPU: AMD Ryzen 7 5800H with Radeon Graphics         , GPU: NVIDIA GeForce RTX 3070 Laptop GPU
LogInit: Compiled (64-bit): Jul  7 2022 02:16:06
LogInit: Compiled with Visual C++: 19.29.30138.00
LogInit: Build Configuration: Development
LogInit: Branch Name: ++UE5+Release-5.0
LogInit: Command Line: 
LogInit: Base Directory: C:/Program Files/Epic Games/UE_5.0/Engine/Binaries/Win64/
LogInit: Allocator: Mimalloc
LogInit: Installed Engine Build: 1
LogDevObjectVersion: Number of dev versions registered: 34
LogDevObjectVersion:   Dev-Blueprints (B0D832E4-1F89-4F0D-ACCF-7EB736FD4AA2): 10
LogDevObjectVersion:   Dev-Build (E1C64328-A22C-4D53-A36C-8E866417BD8C): 0
LogDevObjectVersion:   Dev-Core (375EC13C-06E4-48FB-B500-84F0262A717E): 4
LogDevObjectVersion:   Dev-Editor (E4B068ED-F494-42E9-A231-DA0B2E46BB41): 40
LogDevObjectVersion:   Dev-Framework (CFFC743F-43B0-4480-9391-14DF171D2073): 37
LogDevObjectVersion:   Dev-Mobile (B02B49B5-BB20-44E9-A304-32B752E40360): 3
LogDevObjectVersion:   Dev-Networking (A4E4105C-59A1-49B5-A7C5-40C4547EDFEE): 0
LogDevObjectVersion:   Dev-Online (39C831C9-5AE6-47DC-9A44-9C173E1C8E7C): 0
LogDevObjectVersion:   Dev-Physics (78F01B33-EBEA-4F98-B9B4-84EACCB95AA2): 20
LogDevObjectVersion:   Dev-Platform (6631380F-2D4D-43E0-8009-CF276956A95A): 0
LogDevObjectVersion:   Dev-Rendering (12F88B9F-8875-4AFC-A67C-D90C383ABD29): 45
LogDevObjectVersion:   Dev-Sequencer (7B5AE74C-D270-4C10-A958-57980B212A5A): 13
LogDevObjectVersion:   Dev-VR (D7296918-1DD6-4BDD-9DE2-64A83CC13884): 3
LogDevObjectVersion:   Dev-LoadTimes (C2A15278-BFE7-4AFE-6C17-90FF531DF755): 1
LogDevObjectVersion:   Private-Geometry (6EACA3D4-40EC-4CC1-B786-8BED09428FC5): 3
LogDevObjectVersion:   Dev-AnimPhys (29E575DD-E0A3-4627-9D10-D276232CDCEA): 17
LogDevObjectVersion:   Dev-Anim (AF43A65D-7FD3-4947-9873-3E8ED9C1BB05): 15
LogDevObjectVersion:   Dev-ReflectionCapture (6B266CEC-1EC7-4B8F-A30B-E4D90942FC07): 1
LogDevObjectVersion:   Dev-Automation (0DF73D61-A23F-47EA-B727-89E90C41499A): 1
LogDevObjectVersion:   FortniteMain (601D1886-AC64-4F84-AA16-D3DE0DEAC7D6): 59
LogDevObjectVersion:   FortniteRelease (E7086368-6B23-4C58-8439-1B7016265E91): 3
LogDevObjectVersion:   Dev-Enterprise (9DFFBCD6-494F-0158-E221-12823C92A888): 10
LogDevObjectVersion:   Dev-Niagara (F2AED0AC-9AFE-416F-8664-AA7FFA26D6FC): 1
LogDevObjectVersion:   Dev-Destruction (174F1F0B-B4C6-45A5-B13F-2EE8D0FB917D): 10
LogDevObjectVersion:   Dev-Physics-Ext (35F94A83-E258-406C-A318-09F59610247C): 41
LogDevObjectVersion:   Dev-PhysicsMaterial-Chaos (B68FC16E-8B1B-42E2-B453-215C058844FE): 1
LogDevObjectVersion:   Dev-CineCamera (B2E18506-4273-CFC2-A54E-F4BB758BBA07): 1
LogDevObjectVersion:   Dev-VirtualProduction (64F58936-FD1B-42BA-BA96-7289D5D0FA4E): 1
LogDevObjectVersion:   UE5-Main (697DD581-E64F-41AB-AA4A-51ECBEB7B628): 59
LogDevObjectVersion:   UE5-Release (D89B5E42-24BD-4D46-8412-ACA8DF641779): 36
LogDevObjectVersion:   UE5-PrivateFrosty (59DA5D52-1232-4948-B878-597870B8E98B): 8
LogDevObjectVersion:   UE5-Dev-Cooker (26075A32-730F-4708-88E9-8C32F1599D05): 0
LogDevObjectVersion:   Dev-MediaFramework (6F0ED827-A609-4895-9C91-998D90180EA4): 2
LogDevObjectVersion:   UE5-Dev-LWCRendering (30D58BE3-95EA-4282-A6E3-B159D8EBB06A): 1
LogInit: Presizing for max 25165824 objects, including 0 objects not considered by GC, pre-allocating 0 bytes for permanent pool.
LogInit: Object subsystem initialized
LogConfig: CVar [[con.DebugLateDefault:1]] deferred - dummy variable created
LogConfig: CVar [[con.DebugLateCheat:1]] deferred - dummy variable created
LogConfig: CVar [[r.DetectAndWarnOfBadDrivers:0]] deferred - dummy variable created
LogConfig: CVar [[LogNamedEventFilters:Frame *]] deferred - dummy variable created
LogConfig: CVar [[framepro.ScopeMinTimeMicroseconds:10]] deferred - dummy variable created
LogConfig: CVar [[QualityLevelMapping:high]] deferred - dummy variable created
[2022.08.22-18.38.49:058][  0]LogConfig: Applying CVar settings from Section [/Script/Engine.RendererSettings] File [Engine]
[2022.08.22-18.38.49:058][  0]LogConfig: CVar [[VisualizeCalibrationColorMaterialPath:/Engine/EngineMaterials/PPM_DefaultCalibrationColor.PPM_DefaultCalibrationColor]] deferred - dummy variable created
[2022.08.22-18.38.49:058][  0]LogConfig: CVar [[VisualizeCalibrationGrayscaleMaterialPath:/Engine/EngineMaterials/PPM_DefaultCalibrationGrayscale.PPM_DefaultCalibrationGrayscale]] deferred - dummy variable created
[2022.08.22-18.38.49:058][  0]LogConfig: CVar [[MaxSkinBones:(Default=65536,PerPlatform=(("Mobile", 256)))]] deferred - dummy variable created
[2022.08.22-18.38.49:058][  0]LogConfig: Applying CVar settings from Section [/Script/Engine.RendererOverrideSettings] File [Engine]
[2022.08.22-18.38.49:058][  0]LogConfig: Applying CVar settings from Section [/Script/Engine.StreamingSettings] File [Engine]
[2022.08.22-18.38.49:058][  0]LogConfig: CVar [[s.MaxPackageSummarySize:16384]] deferred - dummy variable created
[2022.08.22-18.38.49:058][  0]LogConfig: CVar [[FixedBootOrder:/Script/Engine/Default__SoundBase]] deferred - dummy variable created
[2022.08.22-18.38.49:058][  0]LogConfig: CVar [[FixedBootOrder:/Script/Engine/Default__MaterialInterface]] deferred - dummy variable created
[2022.08.22-18.38.49:058][  0]LogConfig: CVar [[FixedBootOrder:/Script/Engine/Default__DeviceProfileManager]] deferred - dummy variable created
[2022.08.22-18.38.49:058][  0]LogConfig: Applying CVar settings from Section [/Script/Engine.GarbageCollectionSettings] File [Engine]
[2022.08.22-18.38.49:058][  0]LogConfig: Applying CVar settings from Section [/Script/Engine.NetworkSettings] File [Engine]
[2022.08.22-18.38.49:058][  0]LogConfig: CVar [[NetworkEmulationProfiles:(ProfileName="Average",ToolTip="Simulates average internet conditions")]] deferred - dummy variable created
[2022.08.22-18.38.49:058][  0]LogConfig: CVar [[NetworkEmulationProfiles:(ProfileName="Bad",ToolTip="Simulates laggy internet conditions")]] deferred - dummy variable created
[2022.08.22-18.38.49:058][  0]LogConfig: Applying CVar settings from Section [/Script/UnrealEd.CookerSettings] File [Engine]
[2022.08.22-18.38.49:058][  0]LogConfig: CVar [[DefaultPVRTCQuality:1]] deferred - dummy variable created
[2022.08.22-18.38.49:058][  0]LogConfig: CVar [[DefaultASTCQualityBySpeed:1]] deferred - dummy variable created
[2022.08.22-18.38.49:058][  0]LogConfig: CVar [[DefaultASTCQualityBySize:3]] deferred - dummy variable created
[2022.08.22-18.38.49:058][  0]LogConfig: CVar [[ClassesExcludedOnDedicatedServer:WidgetBlueprint]] deferred - dummy variable created
[2022.08.22-18.38.49:058][  0]LogConfig: CVar [[ClassesExcludedOnDedicatedServer:GroupActor]] deferred - dummy variable created
[2022.08.22-18.38.49:058][  0]LogConfig: CVar [[ClassesExcludedOnDedicatedServer:MetaData]] deferred - dummy variable created
[2022.08.22-18.38.49:058][  0]LogConfig: CVar [[ClassesExcludedOnDedicatedServer:ObjectRedirector]] deferred - dummy variable created
[2022.08.22-18.38.49:058][  0]LogConfig: CVar [[ClassesExcludedOnDedicatedServer:NavMeshRenderingComponent]] deferred - dummy variable created
[2022.08.22-18.38.49:058][  0]LogConfig: CVar [[ClassesExcludedOnDedicatedServer:ReflectionCaptureComponent]] deferred - dummy variable created
[2022.08.22-18.38.49:058][  0]LogConfig: CVar [[ClassesExcludedOnDedicatedServer:TextRenderComponent]] deferred - dummy variable created
[2022.08.22-18.38.49:058][  0]LogConfig: CVar [[ClassesExcludedOnDedicatedServer:Font]] deferred - dummy variable created
[2022.08.22-18.38.49:058][  0]LogConfig: CVar [[ClassesExcludedOnDedicatedServer:InterpCurveEdSetup]] deferred - dummy variable created
[2022.08.22-18.38.49:058][  0]LogConfig: CVar [[ClassesExcludedOnDedicatedServer:MaterialExpression]] deferred - dummy variable created
[2022.08.22-18.38.49:058][  0]LogConfig: CVar [[ClassesExcludedOnDedicatedServer:MatineeActorCameraAnim]] deferred - dummy variable created
[2022.08.22-18.38.49:059][  0]LogConfig: CVar [[ClassesExcludedOnDedicatedServer:NiagaraEmitter]] deferred - dummy variable created
[2022.08.22-18.38.49:059][  0]LogConfig: CVar [[ClassesExcludedOnDedicatedServer:NiagaraScript]] deferred - dummy variable created
[2022.08.22-18.38.49:059][  0]LogConfig: CVar [[ClassesExcludedOnDedicatedServer:ParticleEmitter]] deferred - dummy variable created
[2022.08.22-18.38.49:059][  0]LogConfig: CVar [[ClassesExcludedOnDedicatedServer:ParticleLODLevel]] deferred - dummy variable created
[2022.08.22-18.38.49:059][  0]LogConfig: CVar [[ClassesExcludedOnDedicatedServer:ParticleModule]] deferred - dummy variable created
[2022.08.22-18.38.49:059][  0]LogConfig: CVar [[ClassesExcludedOnDedicatedServer:SubUVAnimation]] deferred - dummy variable created
[2022.08.22-18.38.49:059][  0]LogConfig: CVar [[ClassesExcludedOnDedicatedServer:SoundNode]] deferred - dummy variable created
[2022.08.22-18.38.49:059][  0]LogConfig: CVar [[ClassesExcludedOnDedicatedServer:GameplayEffectUIData]] deferred - dummy variable created
[2022.08.22-18.38.49:059][  0]LogConfig: CVar [[ClassesExcludedOnDedicatedClient:WidgetBlueprint]] deferred - dummy variable created
[2022.08.22-18.38.49:059][  0]LogConfig: CVar [[ClassesExcludedOnDedicatedClient:GroupActor]] deferred - dummy variable created
[2022.08.22-18.38.49:059][  0]LogConfig: CVar [[ClassesExcludedOnDedicatedClient:MetaData]] deferred - dummy variable created
[2022.08.22-18.38.49:059][  0]LogConfig: CVar [[ClassesExcludedOnDedicatedClient:ObjectRedirector]] deferred - dummy variable created
[2022.08.22-18.38.49:059][  0]LogConfig: CVar [[ClassesExcludedOnDedicatedClient:InterpCurveEdSetup]] deferred - dummy variable created
[2022.08.22-18.38.49:059][  0]LogConfig: CVar [[ClassesExcludedOnDedicatedClient:MatineeActorCameraAnim]] deferred - dummy variable created
[2022.08.22-18.38.49:059][  0]LogConfig: CVar [[VersionedIntRValues:r.AllowStaticLighting]] deferred - dummy variable created
[2022.08.22-18.38.49:059][  0]LogConfig: CVar [[VersionedIntRValues:r.GBuffer]] deferred - dummy variable created
[2022.08.22-18.38.49:059][  0]LogConfig: CVar [[VersionedIntRValues:r.VelocityOutputPass]] deferred - dummy variable created
[2022.08.22-18.38.49:059][  0]LogConfig: CVar [[VersionedIntRValues:r.SelectiveBasePassOutputs]] deferred - dummy variable created
[2022.08.22-18.38.49:059][  0]LogConfig: CVar [[VersionedIntRValues:r.DBuffer]] deferred - dummy variable created
[2022.08.22-18.38.49:059][  0]LogConfig: CVar [[VersionedIntRValues:r.Shaders.Symbols]] deferred - dummy variable created
[2022.08.22-18.38.49:059][  0]LogConfig: CVar [[VersionedIntRValues:r.Shaders.GenerateSymbols]] deferred - dummy variable created
[2022.08.22-18.38.49:059][  0]LogConfig: CVar [[VersionedIntRValues:r.Shaders.WriteSymbols]] deferred - dummy variable created
[2022.08.22-18.38.49:059][  0]LogConfig: CVar [[VersionedIntRValues:r.Shaders.AllowUniqueSymbols]] deferred - dummy variable created
[2022.08.22-18.38.49:059][  0]LogConfig: CVar [[VersionedIntRValues:r.Shaders.ExtraData]] deferred - dummy variable created
[2022.08.22-18.38.49:059][  0]LogConfig: CVar [[VersionedIntRValues:r.Shaders.Optimize]] deferred - dummy variable created
[2022.08.22-18.38.49:059][  0]LogConfig: CVar [[VersionedIntRValues:r.CompileShadersForDevelopment]] deferred - dummy variable created
[2022.08.22-18.38.49:059][  0]LogConfig: CVar [[VersionedIntRValues:r.MobileHDR]] deferred - dummy variable created
[2022.08.22-18.38.49:059][  0]LogConfig: CVar [[VersionedIntRValues:r.UsePreExposure]] deferred - dummy variable created
[2022.08.22-18.38.49:061][  0]LogConfig: Applying CVar settings from Section [ViewDistanceQuality@3] File [Scalability]
[2022.08.22-18.38.49:061][  0]LogConfig: Applying CVar settings from Section [AntiAliasingQuality@3] File [Scalability]
[2022.08.22-18.38.49:061][  0]LogConfig: Applying CVar settings from Section [ShadowQuality@3] File [Scalability]
[2022.08.22-18.38.49:061][  0]LogConfig: Applying CVar settings from Section [GlobalIlluminationQuality@3] File [Scalability]
[2022.08.22-18.38.49:061][  0]LogConfig: Applying CVar settings from Section [ReflectionQuality@3] File [Scalability]
[2022.08.22-18.38.49:061][  0]LogConfig: Applying CVar settings from Section [PostProcessQuality@3] File [Scalability]
[2022.08.22-18.38.49:061][  0]LogConfig: Applying CVar settings from Section [TextureQuality@3] File [Scalability]
[2022.08.22-18.38.49:061][  0]LogConfig: Applying CVar settings from Section [EffectsQuality@3] File [Scalability]
[2022.08.22-18.38.49:061][  0]LogConfig: Applying CVar settings from Section [FoliageQuality@3] File [Scalability]
[2022.08.22-18.38.49:061][  0]LogConfig: Applying CVar settings from Section [ShadingQuality@3] File [Scalability]
[2022.08.22-18.38.49:061][  0]LogConfig: CVar [[r.HairStrands.Interpolation.UseSingleGuide:0]] deferred - dummy variable created
[2022.08.22-18.38.49:074][  0]LogD3D12RHI: Aftermath initialized
[2022.08.22-18.38.49:074][  0]LogD3D12RHI: Loading WinPixEventRuntime.dll for PIX profiling (from ../../../Engine/Binaries/ThirdParty/Windows/WinPixEventRuntime/x64).
[2022.08.22-18.38.49:184][  0]LogD3D12RHI: Found D3D12 adapter 0: NVIDIA GeForce RTX 3070 Laptop GPU (Max supported Feature Level 12_1, shader model 6.6)
[2022.08.22-18.38.49:184][  0]LogD3D12RHI: Adapter has 8044MB of dedicated video memory, 0MB of dedicated system memory, and 8118MB of shared system memory, 3 output[s]
[2022.08.22-18.38.49:194][  0]LogD3D12RHI: Found D3D12 adapter 1: Microsoft Basic Render Driver (Max supported Feature Level 12_1, shader model 6.2)
[2022.08.22-18.38.49:194][  0]LogD3D12RHI: Adapter has 0MB of dedicated video memory, 0MB of dedicated system memory, and 8118MB of shared system memory, 0 output[s]
[2022.08.22-18.38.49:268][  0]LogD3D12RHI: Found D3D12 adapter 2: NVIDIA GeForce RTX 3070 Laptop GPU (Max supported Feature Level 12_1, shader model 6.6)
[2022.08.22-18.38.49:268][  0]LogD3D12RHI: Adapter has 8044MB of dedicated video memory, 0MB of dedicated system memory, and 8118MB of shared system memory, 0 output[s]
[2022.08.22-18.38.49:268][  0]LogD3D12RHI: Chosen D3D12 Adapter Id = 0
[2022.08.22-18.38.49:268][  0]LogInit: Selected Device Profile: [WindowsEditor]
[2022.08.22-18.38.49:268][  0]LogDeviceProfileManager: Applying CVar settings loaded from the selected device profile: [WindowsEditor]
[2022.08.22-18.38.49:268][  0]LogHAL: Display: Platform has ~ 16 GB [17024741376 / 17179869184 / 16], which maps to Larger [LargestMinGB=32, LargerMinGB=12, DefaultMinGB=8, SmallerMinGB=6, SmallestMinGB=0)
[2022.08.22-18.38.49:268][  0]LogDeviceProfileManager: Going up to parent DeviceProfile [Windows]
[2022.08.22-18.38.49:268][  0]LogDeviceProfileManager: Going up to parent DeviceProfile []
[2022.08.22-18.38.49:268][  0]LogConfig: Applying CVar settings from Section [Startup] File [../../../Engine/Config/ConsoleVariables.ini]
[2022.08.22-18.38.49:268][  0]LogConfig: Applying CVar settings from Section [ConsoleVariables] File [Engine]
[2022.08.22-18.38.49:268][  0]LogConfig: Applying CVar settings from Section [ConsoleVariables] File [C:/_Projects/Unreal Engine/rocksheep/Saved/Config/WindowsEditor/Editor.ini]
[2022.08.22-18.38.49:269][  0]LogInit: Computer: LAPTOP-44JM66MD
[2022.08.22-18.38.49:269][  0]LogInit: User: Bruno
[2022.08.22-18.38.49:269][  0]LogInit: CPU Page size=4096, Cores=8
[2022.08.22-18.38.49:269][  0]LogInit: High frequency timer resolution =10.000000 MHz
[2022.08.22-18.38.49:269][  0]LogMemory: Memory total: Physical=15.9GB (16GB approx)
[2022.08.22-18.38.49:269][  0]LogMemory: Platform Memory Stats for WindowsEditor
[2022.08.22-18.38.49:269][  0]LogMemory: Process Physical Memory: 279.48 MB used, 289.23 MB peak
[2022.08.22-18.38.49:269][  0]LogMemory: Process Virtual Memory: 246.25 MB used, 246.25 MB peak
[2022.08.22-18.38.49:269][  0]LogMemory: Physical Memory: 8578.71 MB used,  7657.35 MB free, 16236.06 MB total
[2022.08.22-18.38.49:269][  0]LogMemory: Virtual Memory: 14663.07 MB used,  12324.99 MB free, 26988.06 MB total
[2022.08.22-18.38.49:269][  0]LogCsvProfiler: Display: Metadata set : extradevelopmentmemorymb="0"
[2022.08.22-18.38.49:299][  0]LogWindows: WindowsPlatformFeatures enabled
[2022.08.22-18.38.49:312][  0]LogInit: Physics initialised using underlying interface: Chaos
[2022.08.22-18.38.49:313][  0]LogInit: Using OS detected language (en-US).
[2022.08.22-18.38.49:313][  0]LogInit: Using OS detected locale (en-IE).
[2022.08.22-18.38.49:318][  0]LogTextLocalizationManager: No specific localization for 'en-US' exists, so 'en' will be used for the language.
[2022.08.22-18.38.49:454][  0]LogInit: Setting process to per monitor DPI aware
[2022.08.22-18.38.49:464][  0]LogWindowsTextInputMethodSystem: Available input methods:
[2022.08.22-18.38.49:464][  0]LogWindowsTextInputMethodSystem:   - English (Ireland) - (Keyboard).
[2022.08.22-18.38.49:464][  0]LogWindowsTextInputMethodSystem:   - English (United States) - (Keyboard).
[2022.08.22-18.38.49:464][  0]LogWindowsTextInputMethodSystem: Activated input method: English (Ireland) - (Keyboard).
[2022.08.22-18.38.49:478][  0]LogSlate: New Slate User Created.  User Index 0, Is Virtual User: 0
[2022.08.22-18.38.49:478][  0]LogSlate: Slate User Registered.  User Index 0, Is Virtual User: 0
[2022.08.22-18.38.49:577][  0]LogD3D12RHI: InitD3DDevice: -D3DDebug = off -D3D12GPUValidation = off
[2022.08.22-18.38.49:580][  0]LogD3D12RHI: [Aftermath] Aftermath crash dumping enabled
[2022.08.22-18.38.49:580][  0]LogD3D12RHI: Emitting draw events for PIX profiling.
[2022.08.22-18.38.49:641][  0]LogD3D12RHI: [Aftermath] Aftermath enabled and primed
[2022.08.22-18.38.49:641][  0]LogD3D12RHI: [Aftermath] Aftermath resource tracking enabled
[2022.08.22-18.38.49:641][  0]LogD3D12RHI: ID3D12Device1 is supported.
[2022.08.22-18.38.49:641][  0]LogD3D12RHI: ID3D12Device2 is supported.
[2022.08.22-18.38.49:641][  0]LogD3D12RHI: ID3D12Device3 is supported.
[2022.08.22-18.38.49:641][  0]LogD3D12RHI: ID3D12Device4 is supported.
[2022.08.22-18.38.49:641][  0]LogD3D12RHI: ID3D12Device5 is supported.
[2022.08.22-18.38.49:641][  0]LogD3D12RHI: ID3D12Device6 is supported.
[2022.08.22-18.38.49:641][  0]LogD3D12RHI: ID3D12Device7 is supported.
[2022.08.22-18.38.49:641][  0]LogD3D12RHI: D3D12 ray tracing tier 1.0 is supported.
[2022.08.22-18.38.49:641][  0]LogD3D12RHI: D3D12 ray tracing tier 1.1 is supported.
[2022.08.22-18.38.49:641][  0]LogD3D12RHI: Mesh shader tier 1.0 is supported
[2022.08.22-18.38.49:641][  0]LogD3D12RHI: AtomicInt64OnTypedResource is supported
[2022.08.22-18.38.49:641][  0]LogD3D12RHI: AtomicInt64OnGroupShared is supported
[2022.08.22-18.38.49:641][  0]LogD3D12RHI: AtomicInt64OnDescriptorHeapResource is supported
[2022.08.22-18.38.49:641][  0]LogD3D12RHI: Shader Model 6.6 atomic64 is supported
[2022.08.22-18.38.49:699][  0]LogD3D12RHI: [GPUBreadCrumb] Successfully setup breadcrumb resource for 3D Queue 0
[2022.08.22-18.38.49:708][  0]LogD3D12RHI: [GPUBreadCrumb] Successfully setup breadcrumb resource for Copy Queue 0
[2022.08.22-18.38.49:729][  0]LogD3D12RHI: [GPUBreadCrumb] Successfully setup breadcrumb resource for Compute Queue 0
[2022.08.22-18.38.49:747][  0]LogD3D12RHI: Display: Not using pipeline state disk cache per r.D3D12.PSO.DiskCache=0
[2022.08.22-18.38.49:747][  0]LogD3D12RHI: Display: Not using driver-optimized pipeline state disk cache per r.D3D12.PSO.DriverOptimizedDiskCache=0
[2022.08.22-18.38.49:767][  0]LogD3D12RHI:     GPU DeviceId: 0x24dd (for the marketing name, search the web for "GPU Device Id")
[2022.08.22-18.38.49:767][  0]LogWindows: Attached monitors:
[2022.08.22-18.38.49:767][  0]LogWindows:     resolution: 1920x1080, work area: (0, 0) -> (1920, 1032), device: '\\.\DISPLAY1' [PRIMARY]
[2022.08.22-18.38.49:767][  0]LogWindows:     resolution: 1920x1080, work area: (1920, 7) -> (3840, 1039), device: '\\.\DISPLAY7'
[2022.08.22-18.38.49:767][  0]LogWindows:     resolution: 1920x1080, work area: (-1920, 7) -> (0, 1039), device: '\\.\DISPLAY8'
[2022.08.22-18.38.49:767][  0]LogWindows: Found 3 attached monitors.
[2022.08.22-18.38.49:767][  0]LogWindows: EnumDisplayDevices:
[2022.08.22-18.38.49:767][  0]LogWindows:    0. 'NVIDIA GeForce RTX 3070 Laptop GPU' (P:1 D:1), name: '\\.\DISPLAY1'
[2022.08.22-18.38.49:767][  0]LogWindows:    1. 'NVIDIA GeForce RTX 3070 Laptop GPU' (P:0 D:0), name: '\\.\DISPLAY2'
[2022.08.22-18.38.49:767][  0]LogWindows:    2. 'NVIDIA GeForce RTX 3070 Laptop GPU' (P:0 D:0), name: '\\.\DISPLAY3'
[2022.08.22-18.38.49:768][  0]LogWindows:    3. 'NVIDIA GeForce RTX 3070 Laptop GPU' (P:0 D:0), name: '\\.\DISPLAY4'
[2022.08.22-18.38.49:768][  0]LogWindows:    4. 'DisplayLink USB Device' (P:0 D:1), name: '\\.\DISPLAY7'
[2022.08.22-18.38.49:768][  0]LogWindows:    5. 'DisplayLink USB Device' (P:0 D:1), name: '\\.\DISPLAY8'
[2022.08.22-18.38.49:768][  0]LogWindows: DebugString: GetVideoDriverDetailsInvalid PrimaryIsNotTheChoosenAdapter GetVideoDriverDetailsInvalid PrimaryIsNotTheChoosenAdapter FoundDriverCount:4 
[2022.08.22-18.38.49:768][  0]LogD3D12RHI:     Adapter Name: NVIDIA GeForce RTX 3070 Laptop GPU
[2022.08.22-18.38.49:768][  0]LogD3D12RHI:   Driver Version: 516.94 (internal:31.0.15.1694, unified:516.94)
[2022.08.22-18.38.49:768][  0]LogD3D12RHI:      Driver Date: 7-21-2022
[2022.08.22-18.38.49:768][  0]LogRHI: Texture pool is 4583 MB (70% of 6548 MB)
[2022.08.22-18.38.49:768][  0]LogD3D12RHI: Async texture creation enabled
[2022.08.22-18.38.49:768][  0]LogD3D12RHI: RHI has support for 64 bit atomics
[2022.08.22-18.38.49:780][  0]LogRHI: GeForceNow SDK initialized: 0
[2022.08.22-18.38.49:786][  0]LogTurnkeySupport: Running Turnkey SDK detection: ' -ScriptsForProject="C:/_Projects/Unreal Engine/rocksheep/Rock_Sheep.uproject" Turnkey -utf8output -WaitForUATMutex -command=VerifySdk -ReportFilename="C:/_Projects/Unreal Engine/rocksheep/Intermediate/TurnkeyReport_0.log" -log="C:/_Projects/Unreal Engine/rocksheep/Intermediate/TurnkeyLog_0.log" -project="C:/_Projects/Unreal Engine/rocksheep/Rock_Sheep.uproject"  -platform=all'
[2022.08.22-18.38.49:786][  0]LogMonitoredProcess: Running Serialized UAT: [ cmd.exe /c ""C:/Program Files/Epic Games/UE_5.0/Engine/Build/BatchFiles/RunUAT.bat"  -ScriptsForProject="C:/_Projects/Unreal Engine/rocksheep/Rock_Sheep.uproject" Turnkey -utf8output -WaitForUATMutex -command=VerifySdk -ReportFilename="C:/_Projects/Unreal Engine/rocksheep/Intermediate/TurnkeyReport_0.log" -log="C:/_Projects/Unreal Engine/rocksheep/Intermediate/TurnkeyLog_0.log" -project="C:/_Projects/Unreal Engine/rocksheep/Rock_Sheep.uproject"  -platform=all" ]
[2022.08.22-18.38.49:807][  0]LogTextureFormatETC2: Display: ETC2 Texture loading DLL: TextureConverter.dll
[2022.08.22-18.38.49:814][  0]LogTextureFormatOodle: Display: Oodle Texture TFO init; latest sdk version = 2.9.5
[2022.08.22-18.38.49:814][  0]LogTextureFormatOodle: Display: Oodle Texture loading DLL: oo2tex_win64_2.9.5.dll
[2022.08.22-18.38.49:820][  0]LogTargetPlatformManager: Display: Loaded TargetPlatform 'Android'
[2022.08.22-18.38.49:820][  0]LogTargetPlatformManager: Display: Loaded TargetPlatform 'Android_ASTC'
[2022.08.22-18.38.49:820][  0]LogTargetPlatformManager: Display: Loaded TargetPlatform 'Android_DXT'
[2022.08.22-18.38.49:820][  0]LogTargetPlatformManager: Display: Loaded TargetPlatform 'Android_ETC2'
[2022.08.22-18.38.49:820][  0]LogTargetPlatformManager: Display: Loaded TargetPlatform 'AndroidClient'
[2022.08.22-18.38.49:820][  0]LogTargetPlatformManager: Display: Loaded TargetPlatform 'Android_ASTCClient'
[2022.08.22-18.38.49:820][  0]LogTargetPlatformManager: Display: Loaded TargetPlatform 'Android_DXTClient'
[2022.08.22-18.38.49:820][  0]LogTargetPlatformManager: Display: Loaded TargetPlatform 'Android_ETC2Client'
[2022.08.22-18.38.49:820][  0]LogTargetPlatformManager: Display: Loaded TargetPlatform 'Android_Multi'
[2022.08.22-18.38.49:820][  0]LogTargetPlatformManager: Display: Loaded TargetPlatform 'Android_MultiClient'
[2022.08.22-18.38.49:837][  0]LogTargetPlatformManager: Display: Loaded TargetPlatform 'HoloLens'
[2022.08.22-18.38.49:837][  0]LogTargetPlatformManager: Display: Loaded TargetPlatform 'HoloLensClient'
[2022.08.22-18.38.49:841][  0]LogTargetPlatformManager: Display: Loaded TargetPlatform 'IOS'
[2022.08.22-18.38.49:841][  0]LogTargetPlatformManager: Display: Loaded TargetPlatform 'IOSClient'
[2022.08.22-18.38.49:844][  0]LogTargetPlatformManager: Display: Loaded TargetPlatform 'Linux'
[2022.08.22-18.38.49:844][  0]LogTargetPlatformManager: Display: Loaded TargetPlatform 'LinuxEditor'
[2022.08.22-18.38.49:844][  0]LogTargetPlatformManager: Display: Loaded TargetPlatform 'LinuxServer'
[2022.08.22-18.38.49:844][  0]LogTargetPlatformManager: Display: Loaded TargetPlatform 'LinuxClient'
[2022.08.22-18.38.49:847][  0]LogTargetPlatformManager: Display: Loaded TargetPlatform 'LinuxArm64'
[2022.08.22-18.38.49:847][  0]LogTargetPlatformManager: Display: Loaded TargetPlatform 'LinuxArm64Server'
[2022.08.22-18.38.49:847][  0]LogTargetPlatformManager: Display: Loaded TargetPlatform 'LinuxArm64Client'
[2022.08.22-18.38.49:850][  0]LogTargetPlatformManager: Display: Loaded TargetPlatform 'TVOS'
[2022.08.22-18.38.49:850][  0]LogTargetPlatformManager: Display: Loaded TargetPlatform 'TVOSClient'
[2022.08.22-18.38.49:856][  0]LogTargetPlatformManager: Display: Loaded TargetPlatform 'Windows'
[2022.08.22-18.38.49:857][  0]LogTargetPlatformManager: Display: Loaded TargetPlatform 'WindowsEditor'
[2022.08.22-18.38.49:857][  0]LogTargetPlatformManager: Display: Loaded TargetPlatform 'WindowsServer'
[2022.08.22-18.38.49:857][  0]LogTargetPlatformManager: Display: Loaded TargetPlatform 'WindowsClient'
[2022.08.22-18.38.49:857][  0]LogTargetPlatformManager: Display: Building Assets For WindowsEditor
[2022.08.22-18.38.49:864][  0]LogAudioDebug: Display: Lib vorbis DLL was dynamically loaded.
[2022.08.22-18.38.49:867][  0]LogTargetPlatformManager: Unable to find audio format BINKA from hinted modules, loading all potential format modules to find it
[2022.08.22-18.38.49:867][  0]LogTargetPlatformManager: Loaded format module AudioFormatADPCM
[2022.08.22-18.38.49:867][  0]LogTargetPlatformManager:   ADPCM
[2022.08.22-18.38.49:867][  0]LogTargetPlatformManager:   PCM
[2022.08.22-18.38.49:869][  0]LogTargetPlatformManager: Loaded format module AudioFormatBink
[2022.08.22-18.38.49:870][  0]LogTargetPlatformManager:   BINKA
[2022.08.22-18.38.49:870][  0]LogTargetPlatformManager: Loaded format module AudioFormatOgg
[2022.08.22-18.38.49:870][  0]LogTargetPlatformManager:   OGG
[2022.08.22-18.38.49:870][  0]LogTargetPlatformManager: Loaded format module AudioFormatOpus
[2022.08.22-18.38.49:870][  0]LogTargetPlatformManager:   OPUS
[2022.08.22-18.38.49:902][  0]LogTargetPlatformManager: Unable to find shader format SF_METAL from hinted modules, loading all potential format modules to find it
[2022.08.22-18.38.49:907][  0]LogTargetPlatformManager: Loaded format module MetalShaderFormat
[2022.08.22-18.38.49:907][  0]LogTargetPlatformManager:   SF_METAL
[2022.08.22-18.38.49:907][  0]LogTargetPlatformManager:   SF_METAL_MRT
[2022.08.22-18.38.49:907][  0]LogTargetPlatformManager:   SF_METAL_TVOS
[2022.08.22-18.38.49:907][  0]LogTargetPlatformManager:   SF_METAL_MRT_TVOS
[2022.08.22-18.38.49:907][  0]LogTargetPlatformManager:   SF_METAL_SM5
[2022.08.22-18.38.49:907][  0]LogTargetPlatformManager:   SF_METAL_MACES3_1
[2022.08.22-18.38.49:907][  0]LogTargetPlatformManager:   SF_METAL_MRT_MAC
[2022.08.22-18.38.49:907][  0]LogTargetPlatformManager: Loaded format module ShaderFormatD3D
[2022.08.22-18.38.49:907][  0]LogTargetPlatformManager:   PCD3D_SM6
[2022.08.22-18.38.49:907][  0]LogTargetPlatformManager:   PCD3D_SM5
[2022.08.22-18.38.49:907][  0]LogTargetPlatformManager:   PCD3D_ES31
[2022.08.22-18.38.49:907][  0]LogTargetPlatformManager:   D3D_ES3_1_HOLOLENS
[2022.08.22-18.38.49:907][  0]LogTargetPlatformManager: Loaded format module ShaderFormatOpenGL
[2022.08.22-18.38.49:907][  0]LogTargetPlatformManager:   GLSL_150_ES31
[2022.08.22-18.38.49:907][  0]LogTargetPlatformManager:   GLSL_ES3_1_ANDROID
[2022.08.22-18.38.49:910][  0]LogTargetPlatformManager: Loaded format module ShaderFormatVectorVM
[2022.08.22-18.38.49:910][  0]LogTargetPlatformManager:   VVM_1_0
[2022.08.22-18.38.49:910][  0]LogTargetPlatformManager: Loaded format module VulkanShaderFormat
[2022.08.22-18.38.49:910][  0]LogTargetPlatformManager:   SF_VULKAN_SM5
[2022.08.22-18.38.49:910][  0]LogTargetPlatformManager:   SF_VULKAN_ES31_ANDROID
[2022.08.22-18.38.49:910][  0]LogTargetPlatformManager:   SF_VULKAN_ES31
[2022.08.22-18.38.49:910][  0]LogTargetPlatformManager:   SF_VULKAN_SM5_ANDROID
[2022.08.22-18.38.49:910][  0]LogRendererCore: Ray tracing is disabled. Reason: r.RayTracing=0.
[2022.08.22-18.38.49:910][  0]LogShaderCompilers: Display: Compiling shader autogen file: ../../../../../../_Projects/Unreal Engine/rocksheep/Intermediate/ShaderAutogen/PCD3D_SM5/AutogenShaderHeaders.ush
[2022.08.22-18.38.49:910][  0]LogShaderCompilers: Display: Autogen file is unchanged, skipping write.
[2022.08.22-18.38.49:911][  0]LogShaderCompilers: Display: Compiling shader autogen file: ../../../../../../_Projects/Unreal Engine/rocksheep/Intermediate/ShaderAutogen/PCD3D_ES31/AutogenShaderHeaders.ush
[2022.08.22-18.38.49:911][  0]LogTurnkeySupport: Completed SDK detection: ExitCode = 0
[2022.08.22-18.38.49:911][  0]LogShaderCompilers: Display: Autogen file is unchanged, skipping write.
[2022.08.22-18.38.49:913][  0]LogDerivedDataCache: FDerivedDataBackendGraph:  Pak pak cache file ../../../../../../_Projects/Unreal Engine/rocksheep/DerivedDataCache/DDC.ddp not found, will not use a pak cache.
[2022.08.22-18.38.49:913][  0]LogDerivedDataCache: Unable to find inner node Pak for hierarchy Hierarchy.
[2022.08.22-18.38.49:913][  0]LogDerivedDataCache: FDerivedDataBackendGraph:  CompressedPak pak cache file ../../../../../../_Projects/Unreal Engine/rocksheep/DerivedDataCache/Compressed.ddp not found, will not use a pak cache.
[2022.08.22-18.38.49:913][  0]LogDerivedDataCache: Unable to find inner node CompressedPak for hierarchy Hierarchy.
[2022.08.22-18.38.49:932][  0]LogDerivedDataCache: Display: ../../../Engine/DerivedDataCache/Compressed.ddp: Opened pak cache for reading. (1230 MiB)
[2022.08.22-18.38.49:932][  0]LogDerivedDataCache: FDerivedDataBackendGraph:  EnterprisePak pak cache file ../../../Enterprise/DerivedDataCache/Compressed.ddp not found, will not use a pak cache.
[2022.08.22-18.38.49:932][  0]LogDerivedDataCache: Unable to find inner node EnterprisePak for hierarchy Hierarchy.
[2022.08.22-18.38.49:939][  0]LogDerivedDataCache: Speed tests for C:/Users/Bruno/AppData/Local/UnrealEngine/Common/DerivedDataCache took 0.01 seconds
[2022.08.22-18.38.49:939][  0]LogDerivedDataCache: Display: Performance to C:/Users/Bruno/AppData/Local/UnrealEngine/Common/DerivedDataCache: Latency=0.02ms. RandomReadSpeed=341.91MBs, RandomWriteSpeed=216.65MBs. Assigned SpeedClass 'Local'
[2022.08.22-18.38.49:940][  0]LogDerivedDataCache: Using Local data cache path C:/Users/Bruno/AppData/Local/UnrealEngine/Common/DerivedDataCache: Writable
[2022.08.22-18.38.49:940][  0]LogDerivedDataCache: Shared data cache path not found in *engine.ini, will not use an Shared cache.
[2022.08.22-18.38.49:940][  0]LogDerivedDataCache: Unable to find inner node Shared for hierarchy Hierarchy.
[2022.08.22-18.38.49:947][  0]LogVirtualization: VirtualizationSystem name found in ini file: None
[2022.08.22-18.38.49:947][  0]LogVirtualization: FNullVirtualizationSystem mounted, virtualization will be disabled
[2022.08.22-18.38.49:947][  0]LogShaderCompilers: Guid format shader working directory is -5 characters bigger than the processId version (../../../../../../_Projects/Unreal Engine/rocksheep/Intermediate/Shaders/WorkingDirectory/1904/).
[2022.08.22-18.38.49:947][  0]LogShaderCompilers: Cleaned the shader compiler working directory 'C:/Users/Bruno/AppData/Local/Temp/UnrealShaderWorkingDir/2E81D05B4066275CA0698A8AB4770591/'.
[2022.08.22-18.38.49:947][  0]LogXGEController: Cannot use XGE Controller as Incredibuild is not installed on this machine.
[2022.08.22-18.38.49:947][  0]LogShaderCompilers: Display: Using Local Shader Compiler with 8 workers.
[2022.08.22-18.38.51:085][  0]LogSlate: Using FreeType 2.10.0
[2022.08.22-18.38.51:086][  0]LogSlate: SlateFontServices - WITH_FREETYPE: 1, WITH_HARFBUZZ: 1
[2022.08.22-18.38.51:119][  0]LogAssetRegistry: FAssetRegistry took 0.0124 seconds to start up
[2022.08.22-18.38.51:124][  0]LogEditorDomain: Display: EditorDomain is Disabled
[2022.08.22-18.38.51:291][  0]LogSerialization: UsePackageTrailer: 'false'
[2022.08.22-18.38.51:291][  0]LogTexture: Display: Texture Encode Speed: FinalIfAvailable (editor).
[2022.08.22-18.38.51:537][  0]LogInit: Selected Device Profile: [WindowsEditor]
[2022.08.22-18.38.51:537][  0]LogDeviceProfileManager: Active device profile: [00000A1FAB306580][00000A1FA0750000 50] WindowsEditor
[2022.08.22-18.38.51:537][  0]LogDeviceProfileManager: Profiles: [00000A1FAB306040][00000A1FA0755000 50] Windows, [00000A1FAB306580][00000A1FA0750000 50] WindowsEditor, [00000A1FAB305CC0][00000A1FA06E7800 50] WindowsServer, [00000A1FAB305940][00000A1FA066C800 50] WindowsClient, [00000A1FAB301500][00000A1FA0752800 50] IOS, [00000A1FAB305780][00000A1F911EA000 50] iPadAir2, [00000A1FAB3055C0][00000A1FAB572800 50] IPadPro, [00000A1FAB301F80][00000A1FAB570000 50] iPadAir3, [00000A1FAB304B40][00000A1FAB577800 50] iPadAir4, [00000A1FAB303800][00000A1FAB57A000 50] iPadMini4, [00000A1FAB305400][00000A1FAB57C800 50] iPadMini5, [00000A1FAB3024C0][00000A1FA484C800 50] iPadMini6, [00000A1FAB309840][00000A1FAB5C5000 50] iPhone6S, [00000A1FAB309BC0][00000A1FAB5C2800 50] iPhone7, [00000A1FAB3094C0][00000A1FAB5C0000 50] iPodTouch7, [00000A1FAB302F40][00000A1FAB5CA000 50] iPhone6SPlus, [00000A1FAB304EC0][00000A1FAB5CC800 50] iPhone7Plus, [00000A1FAB305240][00000A1FAB575000 50] iPhoneSE, [00000A1FAB3086C0][00000A1FAB5D0000 50] iPhone8, [00000A1FAB303480][00000A1FAB5D5000 50] iPhone8Plus, [00000A1FAB3032C0][00000A1FAB5D7800 50] iPhoneX, [00000A1FAB306E40][00000A1FAB5DA000 50] iPhoneXS, [00000A1FAB308500][00000A1FAB5DC800 50] iPhoneXSMax, [00000A1FAB307700][00000A1FAB5C7800 50] iPhoneXR, [00000A1FAB302D80][00000A1FAB560000 50] iPhone11, [00000A1FAB307FC0][00000A1FAB565000 50] iPhone11Pro, [00000A1FAB3016C0][00000A1FAB567800 50] iPhone11ProMax, [00000A1FAB304D00][00000A1FAB56A000 50] iPhoneSE2, [00000A1FAB308880][00000A1FAB56C800 50] iPhone12Mini, [00000A1FAB302300][00000A1FAB5D2800 50] iPhone12, [00000A1FAB306AC0][00000A1FAB5E0000 50] iPhone12Pro, [00000A1FAB300FC0][00000A1FAB5E5000 50] iPhone12ProMax, [00000A1FAB307E00][00000A1FAB5E7800 50] iPhone13Mini, [00000A1FAB309300][00000A1FAB5EA000 50] iPhone13, [00000A1FAB308340][00000A1FAB5EC800 50] iPhone13Pro, [00000A1FAB303F00][00000A1FAB562800 50] iPhone13ProMax, [00000A1FAB304980][00000A1FAB610000 50] iPadPro105, [00000A1FAB307A80][00000A1FAB615000 50] iPadPro129, [00000A1FAB306740][00000A1FAB617800 50] iPadPro97, [00000A1FAB307C40][00000A1FAB61A000 50] iPadPro2_129, [00000A1FAB307380][00000A1FAB61C800 50] iPad5, [00000A1FAB302A00][00000A1FAB5E2800 50] iPad6, [00000A1FAB303100][00000A1FAB620000 50] iPad7, [00000A1FAB302680][00000A1FAB625000 50] iPad8, [00000A1FAB306900][00000A1FAB627800 50] iPad9, [00000A1FAB306C80][00000A1FAB62A000 50] iPadPro11, [00000A1FAB305080][00000A1FAB62C800 50] iPadPro2_11, [00000A1FAB302BC0][00000A1FAB612800 50] iPadPro3_11, [00000A1FAB301880][00000A1FAB630000 50] iPadPro3_129, [00000A1FAB303640][00000A1FAB635000 50] iPadPro4_129, [00000A1FAB3071C0][00000A1FAB637800 50] iPadPro5_129, [00000A1FAB308A40][00000A1FAB63A000 50] AppleTV, [00000A1FAB309140][00000A1FAB63C800 50] AppleTV4K, [00000A1FAB303D40][00000A1FAB622800 50] TVOS, [00000A1FAB30BB40][00000A1FAB642800 50] Mac, [00000A1FAB30BEC0][00000A1FAB640000 50] MacEditor, [00000A1FAB303B80][00000A1FAB647800 50] MacClient, [00000A1FAB30B980][00000A1FAB64A000 50] MacServer, [00000A1FAB30B7C0][00000A1FAB632800 50] Linux, [00000A1FAB308F80][00000A1FAB64C800 50] LinuxEditor, [00000A1FAB30B0C0][00000A1FAB650000 50] LinuxArm64Editor, [00000A1FAB302140][00000A1FAB655000 50] LinuxArm64, [00000A1FAB30C5C0][00000A1FAB657800 50] LinuxClient, [00000A1FAB304600][00000A1FAB65A000 50] LinuxArm64Client, [00000A1FAB30B440][00000A1FAB65C800 50] LinuxServer, [00000A1FAB30C240][00000A1FAB645000 50] LinuxArm64Server, [00000A1FAB3078C0][00000A1FAB660000 50] Android, [00000A1FAB30C780][00000A1FAB665000 50] Android_Preview_OpenGL, [00000A1FAB30A100][00000A1FAB667800 50] Android_Preview_Vulkan, [00000A1FAB30CB00][00000A1FAB66A000 50] Android_Low, [00000A1FAB30A800][00000A1FAB66C800 50] Android_Mid, [00000A1FAB30C940][00000A1FAB652800 50] Android_High, [00000A1FAB30B280][00000A1FAB670000 50] Android_Default, [00000A1FAB309680][00000A1FAB675000 50] Android_Adreno4xx, [00000A1FAB30A480][00000A1FAB677800 50] Android_Adreno5xx_Low, [00000A1FAB30C400][00000A1FAB67A000 50] Android_Adreno5xx, [00000A1FAB304280][00000A1FAB67C800 50] Android_Adreno6xx, [00000A1FAB30AB80][00000A1FAB662800 50] Android_Adreno6xx_Vulkan, [00000A1FAB305E80][00000A1FAB680000 50] Android_Adreno7xx, [00000A1FAB30BD00][00000A1FAB685000 50] Android_Adreno7xx_Vulkan, [00000A1FAB3040C0][00000A1FAB687800 50] Android_Mali_T6xx, [00000A1FAB30AD40][00000A1FAB68A000 50] Android_Mali_T7xx, [00000A1FAB307540][00000A1FAB68C800 50] Android_Mali_T8xx, [00000A1FAB309D80][00000A1FAB672800 50] Android_Mali_G71, [00000A1FAB30D740][00000A1FAB690000 50] Android_Mali_G72, [00000A1FAB308180][00000A1FAB695000 50] Android_Mali_G72_Vulkan, [00000A1FAB30C080][00000A1FAB697800 50] Android_Mali_G76, [00000A1FAB308C00][00000A1FAB69A000 50] Android_Mali_G76_Vulkan, [00000A1FAB308DC0][00000A1FAB69C800 50] Android_Mali_G77, [00000A1FAB30D200][00000A1FAB682800 50] Android_Mali_G77_Vulkan, [00000A1FAB30AF00][00000A1FAB6A0000 50] Android_Mali_G78, [00000A1FAB3039C0][00000A1FAB6A5000 50] Android_Mali_G78_Vulkan, [00000A1FAB30A640][00000A1FAB6A7800 50] Android_Mali_G710, [00000A1FAB30E700][00000A1FAB6AA000 50] Android_Mali_G710_Vulkan, [00000A1FAB30B600][00000A1FAB6AC800 50] Android_Xclipse_920, [00000A1FAB30D040][00000A1FAB692800 50] Android_Xclipse_920_Vulkan, [00000A1FAB309A00][00000A1FAB6B0000 50] Android_Vulkan_SM5, [00000A1FAB30DAC0][00000A1FAB6B5000 50] Android_PowerVR_G6xxx, [00000A1FAB30E1C0][00000A1FAB6B7800 50] Android_PowerVR_GT7xxx, [00000A1FAB30E380][00000A1FAB6BA000 50] Android_PowerVR_GE8xxx, [00000A1FAB305B00][00000A1FAB6BC800 50] Android_PowerVR_GM9xxx, [00000A1FAB30F6C0][00000A1FAB6A2800 50] Android_PowerVR_GM9xxx_Vulkan, [00000A1FAB30E000][00000A1FAB6C0000 50] Android_TegraK1, [00000A1FAB30A2C0][00000A1FAB6C5000 50] Android_Unknown_Vulkan, [00000A1FAB30DE40][00000A1FAB6C7800 50] Oculus_Quest, [00000A1FAB30D580][00000A1FAB6CA000 50] Oculus_Quest2, [00000A1FAB30F180][00000A1FAB6CC800 50] HoloLens, 
[2022.08.22-18.38.51:537][  0]LogCsvProfiler: Display: Metadata set : deviceprofile="WindowsEditor"
[2022.08.22-18.38.51:559][  0]LogTexture: Display: Oodle Texture Encode Speed settings: Fast: RDO Off Lambda=0, Effort=Normal Final: RDO Off Lambda=0, Effort=Normal
[2022.08.22-18.38.51:716][  0]LogMeshReduction: Using QuadricMeshReduction for automatic static mesh reduction
[2022.08.22-18.38.51:716][  0]LogMeshReduction: Using SimplygonMeshReduction for automatic skeletal mesh reduction
[2022.08.22-18.38.51:716][  0]LogMeshReduction: Using ProxyLODMeshReduction for automatic mesh merging
[2022.08.22-18.38.51:716][  0]LogMeshReduction: No distributed automatic mesh merging module available
[2022.08.22-18.38.51:716][  0]LogMeshMerging: No distributed automatic mesh merging module available
[2022.08.22-18.38.51:729][  0]LogNetVersion: Rock_Sheep 1.0.0, NetCL: 19505902, EngineNetVer: 23, GameNetVer: 0 (Checksum: 913440199)
[2022.08.22-18.38.51:840][  0]LogSlate: Border
[2022.08.22-18.38.51:840][  0]LogSlate: BreadcrumbButton
[2022.08.22-18.38.51:840][  0]LogSlate: Default
[2022.08.22-18.38.51:840][  0]LogSlate: Icons.Save
[2022.08.22-18.38.51:840][  0]LogSlate: Icons.Toolbar.Settings
[2022.08.22-18.38.51:840][  0]LogSlate: ListView
[2022.08.22-18.38.51:840][  0]LogSlate: SoftwareCursor_CardinalCross
[2022.08.22-18.38.51:840][  0]LogSlate: SoftwareCursor_Grab
[2022.08.22-18.38.51:840][  0]LogSlate: TableView.DarkRow
[2022.08.22-18.38.51:840][  0]LogSlate: TableView.Row
[2022.08.22-18.38.51:840][  0]LogSlate: TreeView
[2022.08.22-18.38.51:985][  0]SourceControl: Source control is disabled
[2022.08.22-18.38.52:009][  0]SourceControl: Source control is disabled
[2022.08.22-18.38.52:009][  0]SourceControl: Source control is disabled
[2022.08.22-18.38.52:112][  0]LogUObjectArray: 20557 objects as part of root set at end of initial load.
[2022.08.22-18.38.52:112][  0]LogUObjectAllocator: 5584256 out of 0 bytes used by permanent object pool.
[2022.08.22-18.38.52:112][  0]LogUObjectArray: CloseDisregardForGC: 0/0 objects in disregard for GC pool
[2022.08.22-18.38.52:419][  0]LogNiagaraDebuggerClient: Niagara Debugger Client Initialized | Session: 32DBB716480519953E013F84A001D228 | Instance: 2E0C0AAD4DA7482C482A449206748913 (LAPTOP-44JM66MD-1904).
[2022.08.22-18.38.52:476][  0]LogTcpMessaging: Initializing TcpMessaging bridge
[2022.08.22-18.38.52:481][  0]LogUdpMessaging: Initializing bridge on interface 0.0.0.0:0 to multicast group 230.0.0.1:6666.
[2022.08.22-18.38.52:501][  0]LogPython: Using Python 3.9.7
[2022.08.22-18.38.53:230][  0]SourceControl: Source control is disabled
[2022.08.22-18.38.53:240][  0]SourceControl: Source control is disabled
[2022.08.22-18.38.53:369][  0]SourceControl: Source control is disabled
[2022.08.22-18.38.53:383][  0]LogUProjectInfo: Found projects:
[2022.08.22-18.38.53:523][  0]LogAndroidPermission: UAndroidPermissionCallbackProxy::GetInstance
[2022.08.22-18.38.53:542][  0]LogAudioCaptureCore: Display: No Audio Capture implementations found. Audio input will be silent.
[2022.08.22-18.38.53:542][  0]LogAudioCaptureCore: Display: No Audio Capture implementations found. Audio input will be silent.
[2022.08.22-18.38.53:582][  0]LogOpenImageDenoise: OIDN starting up
[2022.08.22-18.38.53:655][  0]LogCollectionManager: Loaded 0 collections in 0.001636 seconds
[2022.08.22-18.38.53:737][  0]LogFileCache: Scanning file cache for directory 'C:/_Projects/Unreal Engine/rocksheep/Saved/Collections/' took 0.00s
[2022.08.22-18.38.53:737][  0]LogFileCache: Scanning file cache for directory 'C:/_Projects/Unreal Engine/rocksheep/Content/Developers/Bruno/Collections/' took 0.00s
[2022.08.22-18.38.53:737][  0]LogFileCache: Scanning file cache for directory 'C:/_Projects/Unreal Engine/rocksheep/Content/Collections/' took 0.00s
[2022.08.22-18.38.54:001][  0]LogEngine: Initializing Engine...
[2022.08.22-18.38.54:014][  0]LogStylusInput: Initializing StylusInput subsystem.
[2022.08.22-18.38.54:015][  0]LogStats: UGameplayTagsManager::InitializeManager -  0.000 s
[2022.08.22-18.38.54:238][  0]LogInit: Initializing FReadOnlyCVARCache
[2022.08.22-18.38.54:238][  0]LogSubsystemCollection: Failed to initialize subsystem dependency (WorldPartitionSubsystem)
[2022.08.22-18.38.54:248][  0]LogChaos: FPhysicsSolverBase::AsyncDt:-1.000000
[2022.08.22-18.38.54:276][  0]LogAIModule: Creating AISystem for world Untitled
[2022.08.22-18.38.54:276][  0]LogAudio: Display: Initializing Audio Device Manager...
[2022.08.22-18.38.54:296][  0]LogAudio: Display: Loading Default Audio Settings Objects...
[2022.08.22-18.38.54:297][  0]LogAudio: Display: No default SoundConcurrencyObject specified (or failed to load).
[2022.08.22-18.38.54:297][  0]LogAudio: Display: Registering Engine Module Parameter Interfaces...
[2022.08.22-18.38.54:297][  0]LogAudio: Display: Audio Device Manager Initialized
[2022.08.22-18.38.54:297][  0]LogAudio: Display: Creating Audio Device:                 Id: 1, Scope: Shared, Realtime: True
[2022.08.22-18.38.54:297][  0]LogAudioMixer: Display: Audio Mixer Platform Settings:
[2022.08.22-18.38.54:297][  0]LogAudioMixer: Display: 	Sample Rate:						  48000
[2022.08.22-18.38.54:297][  0]LogAudioMixer: Display: 	Callback Buffer Frame Size Requested: 1024
[2022.08.22-18.38.54:297][  0]LogAudioMixer: Display: 	Callback Buffer Frame Size To Use:	  1024
[2022.08.22-18.38.54:297][  0]LogAudioMixer: Display: 	Number of buffers to queue:			  2
[2022.08.22-18.38.54:297][  0]LogAudioMixer: Display: 	Max Channels (voices):				  0
[2022.08.22-18.38.54:297][  0]LogAudioMixer: Display: 	Number of Async Source Workers:		  0
[2022.08.22-18.38.54:297][  0]LogAudio: Display: AudioDevice MaxSources: 32
[2022.08.22-18.38.54:298][  0]LogAudio: Display: Audio Spatialization Plugin: None (built-in).
[2022.08.22-18.38.54:298][  0]LogAudio: Display: Audio Reverb Plugin: None (built-in).
[2022.08.22-18.38.54:298][  0]LogAudio: Display: Audio Occlusion Plugin: None (built-in).
[2022.08.22-18.38.54:304][  0]LogAudioMixer: Display: Initializing audio mixer using platform API: 'XAudio2'
[2022.08.22-18.38.54:409][  0]LogAudioMixer: Display: Using Audio Hardware Device Headphones (Realtek(R) Audio)
[2022.08.22-18.38.54:409][  0]LogAudioMixer: Display: Initializing Sound Submixes...
[2022.08.22-18.38.54:411][  0]LogAudioMixer: Display: Creating Master Submix 'MasterSubmixDefault'
[2022.08.22-18.38.54:411][  0]LogAudioMixer: Display: Creating Master Submix 'MasterReverbSubmixDefault'
[2022.08.22-18.38.54:411][  0]LogAudioMixer: FMixerPlatformXAudio2::StartAudioStream() called. InstanceID=1
[2022.08.22-18.38.54:411][  0]LogAudioMixer: Display: Output buffers initialized: Frames=1024, Channels=2, Samples=2048, InstanceID=1
[2022.08.22-18.38.54:413][  0]LogAudioMixer: Display: Starting AudioMixerPlatformInterface::RunInternal(), InstanceID=1
[2022.08.22-18.38.54:413][  0]LogAudioMixer: Display: FMixerPlatformXAudio2::SubmitBuffer() called for the first time. InstanceID=1
[2022.08.22-18.38.54:413][  0]LogInit: FAudioDevice initialized.
[2022.08.22-18.38.54:413][  0]LogAudio: Display: Audio Device (ID: 1) registered with world 'Untitled'.
[2022.08.22-18.38.54:413][  0]LogNetVersion: Set ProjectVersion to 1.0.0.0. Version Checksum will be recalculated on next use.
[2022.08.22-18.38.54:413][  0]LogInit: Texture streaming: Enabled
[2022.08.22-18.38.54:445][  0]LogAnalytics: Display: [UEEditor.Rocket.Release] APIServer = https://datarouter.ol.epicgames.com/. AppVersion = 5.0.3-20979098+++UE5+Release-5.0
[2022.08.22-18.38.54:453][  0]LogEngineSessionManager: EngineSessionManager initialized
[2022.08.22-18.38.54:474][  0]LogCsvProfiler: Display: Metadata set : largeworldcoordinates="1"
[2022.08.22-18.38.54:482][  0]LogLiveCoding: Display: Starting LiveCoding
[2022.08.22-18.38.54:482][  0]LogLiveCoding: Display: LiveCodingConsole Arguments: UnrealEditor Win64 Development
[2022.08.22-18.38.55:270][  0]LogLiveCoding: Display: First instance in process group "UE_Rock_Sheep_0x160fec56", spawning console
[2022.08.22-18.38.55:270][  0]LogLiveCoding: Display: Waiting for server
[2022.08.22-18.38.55:270][  0]LogLiveCoding: Display: Successfully initialized, removing startup thread
[2022.08.22-18.38.55:293][  0]LogInit: Transaction tracking system initialized
[2022.08.22-18.38.55:370][  0]BlueprintLog: New page: Editor Load
[2022.08.22-18.38.55:580][  0]LocalizationService: Localization service is disabled
[2022.08.22-18.38.55:643][  0]TimingProfiler: Initialize
[2022.08.22-18.38.55:643][  0]TimingProfiler: OnSessionChanged
[2022.08.22-18.38.55:643][  0]LoadingProfiler: Initialize
[2022.08.22-18.38.55:644][  0]LoadingProfiler: OnSessionChanged
[2022.08.22-18.38.55:644][  0]NetworkingProfiler: Initialize
[2022.08.22-18.38.55:644][  0]NetworkingProfiler: OnSessionChanged
[2022.08.22-18.38.55:644][  0]MemoryProfiler: Initialize
[2022.08.22-18.38.55:644][  0]MemoryProfiler: OnSessionChanged
[2022.08.22-18.38.56:328][  0]LogFileCache: Scanning file cache for directory 'C:/_Projects/Unreal Engine/rocksheep/Content/' took 0.01s
[2022.08.22-18.38.56:328][  0]LogLevelSequenceEditor: LevelSequenceEditor subsystem initialized.
[2022.08.22-18.38.56:414][  0]LogInit: Display: Engine is initialized. Leaving FEngineLoop::Init()
[2022.08.22-18.38.56:416][  0]SourceControl: Source control is disabled
[2022.08.22-18.38.56:416][  0]LogUnrealEdMisc: Loading editor; pre map load, took 8.280
[2022.08.22-18.38.56:416][  0]Cmd: MAP LOAD FILE="../../../../../../_Projects/Unreal Engine/rocksheep/Content/TopDown/Maps/TopDownMap.umap" TEMPLATE=0 SHOWPROGRESS=1 FEATURELEVEL=3
[2022.08.22-18.38.56:416][  0]LightingResults: New page: Lighting Build
[2022.08.22-18.38.56:423][  0]LogWorld: UWorld::CleanupWorld for Untitled, bSessionEnded=true, bCleanupResources=true
[2022.08.22-18.38.56:423][  0]LogSlate: InvalidateAllWidgets triggered.  All widgets were invalidated
[2022.08.22-18.38.56:423][  0]MapCheck: New page: Map Check
[2022.08.22-18.38.56:423][  0]LightingResults: New page: Lighting Build
[2022.08.22-18.38.56:428][  0]LogAudio: Display: Audio Device unregistered from world 'None'.
[2022.08.22-18.38.56:431][  0]LogUObjectHash: Compacting FUObjectHashTables data took   0.43ms
[2022.08.22-18.38.56:903][  0]LogAudio: Display: Audio Device (ID: 1) registered with world 'TopDownMap'.
[2022.08.22-18.38.56:910][  0]LogChaos: FPhysicsSolverBase::AsyncDt:-1.000000
[2022.08.22-18.38.56:910][  0]LogAIModule: Creating AISystem for world TopDownMap
[2022.08.22-18.38.56:911][  0]LogWorldPartition: Display: WorldPartition initialize started...
[2022.08.22-18.38.56:911][  0]LogWorldPartition: UWorldPartition::Initialize(IsEditor=1, IsGame=0, IsCooking=0)
[2022.08.22-18.38.56:974][  0]LogWorldPartition: Display: WorldPartition initialize took 63 ms
[2022.08.22-18.38.56:977][  0]LogEditorServer: Finished looking for orphan Actors (0.000 secs)
[2022.08.22-18.38.56:978][  0]LogNavigationDataBuild: Display:    RebuildAll building NavData:  Name Default class /Script/NavigationSystem.RecastNavMesh agent radius 35.0.
[2022.08.22-18.38.56:985][  0]LogUObjectHash: Compacting FUObjectHashTables data took   0.53ms
[2022.08.22-18.38.56:986][  0]Cmd: MAP CHECKDEP NOCLEARLOG
[2022.08.22-18.38.56:986][  0]MapCheck: Map check complete: 0 Error(s), 0 Warning(s), took 0.363ms to complete.
[2022.08.22-18.38.56:986][  0]LogFileHelpers: Loading map 'TopDownMap' took 0.570
[2022.08.22-18.38.56:996][  0]LogUnrealEdMisc: Total Editor Startup Time, took 8.861
[2022.08.22-18.38.56:996][  0]LogShaderCompilers: Display: ================================================
[2022.08.22-18.38.56:996][  0]LogShaderCompilers: Display: === FShaderJobCache stats ===
[2022.08.22-18.38.56:996][  0]LogShaderCompilers: Display: Total job queries 0, among them cache hits 0 (0.00%)
[2022.08.22-18.38.56:996][  0]LogShaderCompilers: Display: Tracking 0 distinct input hashes that result in 0 distinct outputs (0.00%)
[2022.08.22-18.38.56:996][  0]LogShaderCompilers: Display: RAM used: 0.00 MB (0.00 GB) of 819.20 MB (0.80 GB) budget. Usage: 0.00%
[2022.08.22-18.38.56:996][  0]LogShaderCompilers: Display: === Shader Compilation stats ===
[2022.08.22-18.38.56:996][  0]LogShaderCompilers: Display: Shaders Compiled: 0
[2022.08.22-18.38.56:996][  0]LogShaderCompilers: Display: Jobs assigned 0, completed 0 (0.00%)
[2022.08.22-18.38.56:996][  0]LogShaderCompilers: Display: Time at least one job was in flight (either pending or executed): 0.00 s
[2022.08.22-18.38.56:996][  0]LogShaderCompilers: Display: ================================================
[2022.08.22-18.38.57:080][  0]LogSlate: The tab "TopLeftModeTab" attempted to spawn in layout 'LevelEditor_Layout_v1.8' but failed for some reason. It will not be displayed.
[2022.08.22-18.38.57:088][  0]LogSlate: Updating window title bar state: overlay mode, drag disabled, window buttons hidden, title bar hidden
[2022.08.22-18.38.57:092][  0]LogSlate: Updating window title bar state: overlay mode, drag disabled, window buttons hidden, title bar hidden
[2022.08.22-18.38.57:096][  0]LogSlate: Updating window title bar state: overlay mode, drag disabled, window buttons hidden, title bar hidden
[2022.08.22-18.38.57:100][  0]LogSlate: Updating window title bar state: overlay mode, drag disabled, window buttons hidden, title bar hidden
[2022.08.22-18.38.57:115][  0]LogPakFile: Display: Mounted Pak file 'C:/Program Files/Epic Games/UE_5.0/FeaturePacks/StarterContent.upack', mount point: 'root:/'
[2022.08.22-18.38.57:115][  0]LogPakFile: Display: Mount point: 'root:/' is not mounted to a valid Root Path yet, assets in this pak file may not be accessible until a corresponding UFS Mount Point is added through FPackageName::RegisterMountPoint.
[2022.08.22-18.38.57:116][  0]LogPakFile: Display: Mounted Pak file 'C:/Program Files/Epic Games/UE_5.0/FeaturePacks/TP_FirstPerson.upack', mount point: 'root:/'
[2022.08.22-18.38.57:116][  0]LogPakFile: Display: Mount point: 'root:/' is not mounted to a valid Root Path yet, assets in this pak file may not be accessible until a corresponding UFS Mount Point is added through FPackageName::RegisterMountPoint.
[2022.08.22-18.38.57:116][  0]LogPakFile: Display: Mounted Pak file 'C:/Program Files/Epic Games/UE_5.0/FeaturePacks/TP_FirstPersonBP.upack', mount point: 'root:/'
[2022.08.22-18.38.57:116][  0]LogPakFile: Display: Mount point: 'root:/' is not mounted to a valid Root Path yet, assets in this pak file may not be accessible until a corresponding UFS Mount Point is added through FPackageName::RegisterMountPoint.
[2022.08.22-18.38.57:116][  0]LogPakFile: Display: Mounted Pak file 'C:/Program Files/Epic Games/UE_5.0/FeaturePacks/TP_HandheldARBP.upack', mount point: 'root:/'
[2022.08.22-18.38.57:116][  0]LogPakFile: Display: Mount point: 'root:/' is not mounted to a valid Root Path yet, assets in this pak file may not be accessible until a corresponding UFS Mount Point is added through FPackageName::RegisterMountPoint.
[2022.08.22-18.38.57:117][  0]LogPakFile: Display: Mounted Pak file 'C:/Program Files/Epic Games/UE_5.0/FeaturePacks/TP_ThirdPerson.upack', mount point: 'root:/'
[2022.08.22-18.38.57:117][  0]LogPakFile: Display: Mount point: 'root:/' is not mounted to a valid Root Path yet, assets in this pak file may not be accessible until a corresponding UFS Mount Point is added through FPackageName::RegisterMountPoint.
[2022.08.22-18.38.57:117][  0]LogPakFile: Display: Mounted Pak file 'C:/Program Files/Epic Games/UE_5.0/FeaturePacks/TP_ThirdPersonBP.upack', mount point: 'root:/'
[2022.08.22-18.38.57:117][  0]LogPakFile: Display: Mount point: 'root:/' is not mounted to a valid Root Path yet, assets in this pak file may not be accessible until a corresponding UFS Mount Point is added through FPackageName::RegisterMountPoint.
[2022.08.22-18.38.57:118][  0]LogPakFile: Display: Mounted Pak file 'C:/Program Files/Epic Games/UE_5.0/FeaturePacks/TP_TopDown.upack', mount point: 'root:/'
[2022.08.22-18.38.57:118][  0]LogPakFile: Display: Mount point: 'root:/' is not mounted to a valid Root Path yet, assets in this pak file may not be accessible until a corresponding UFS Mount Point is added through FPackageName::RegisterMountPoint.
[2022.08.22-18.38.57:118][  0]LogPakFile: Display: Mounted Pak file 'C:/Program Files/Epic Games/UE_5.0/FeaturePacks/TP_TopDownBP.upack', mount point: 'root:/'
[2022.08.22-18.38.57:118][  0]LogPakFile: Display: Mount point: 'root:/' is not mounted to a valid Root Path yet, assets in this pak file may not be accessible until a corresponding UFS Mount Point is added through FPackageName::RegisterMountPoint.
[2022.08.22-18.38.57:119][  0]LogPakFile: Display: Mounted Pak file 'C:/Program Files/Epic Games/UE_5.0/FeaturePacks/TP_VehicleAdvBP.upack', mount point: 'root:/'
[2022.08.22-18.38.57:119][  0]LogPakFile: Display: Mount point: 'root:/' is not mounted to a valid Root Path yet, assets in this pak file may not be accessible until a corresponding UFS Mount Point is added through FPackageName::RegisterMountPoint.
[2022.08.22-18.38.57:119][  0]LogPakFile: Display: Mounted Pak file 'C:/Program Files/Epic Games/UE_5.0/FeaturePacks/TP_VirtualRealityBP.upack', mount point: 'root:/'
[2022.08.22-18.38.57:119][  0]LogPakFile: Display: Mount point: 'root:/' is not mounted to a valid Root Path yet, assets in this pak file may not be accessible until a corresponding UFS Mount Point is added through FPackageName::RegisterMountPoint.
[2022.08.22-18.38.57:119][  0]LogFeaturePack: Error: Error in Feature pack C:/Program Files/Epic Games/UE_5.0/FeaturePacks/TP_VirtualRealityBP.upack. Failed to parse manifest: Invalid Json Token. Line: 43 Ch: 4
[2022.08.22-18.38.57:266][  0]LogSlate: Took 0.000194 seconds to synchronously load lazily loaded font '../../../Engine/Content/Slate/Fonts/Roboto-Regular.ttf' (155K)
[2022.08.22-18.38.57:269][  0]LogSlate: Took 0.000242 seconds to synchronously load lazily loaded font '../../../Engine/Content/Slate/Fonts/Roboto-Bold.ttf' (160K)
[2022.08.22-18.38.57:270][  0]LogSlate: Took 0.000160 seconds to synchronously load lazily loaded font '../../../Engine/Content/Editor/Slate/Fonts/FontAwesome.ttf' (139K)
[2022.08.22-18.38.57:271][  0]LogSlate: Took 0.000153 seconds to synchronously load lazily loaded font '../../../Engine/Content/Slate/Fonts/Roboto-Italic.ttf' (157K)
[2022.08.22-18.38.57:272][  0]LogSlate: Took 0.000092 seconds to synchronously load lazily loaded font '../../../Engine/Content/Slate/Fonts/DroidSansMono.ttf' (77K)
[2022.08.22-18.38.57:287][  0]LogViewport: Scene viewport resized to 1374x497, mode Windowed.
[2022.08.22-18.38.57:322][  0]LogSlate: Took 0.000173 seconds to synchronously load lazily loaded font '../../../Engine/Content/Slate/Fonts/Roboto-Light.ttf' (167K)
[2022.08.22-18.38.57:831][  0]LogStall: Startup...
[2022.08.22-18.38.57:833][  0]LogStall: Startup complete.
[2022.08.22-18.38.57:857][  0]LogLoad: (Engine Initialization) Total time: 9.72 seconds
[2022.08.22-18.38.57:857][  0]LogLoad: (Engine Initialization) Total Blueprint compile time: 0.00 seconds
[2022.08.22-18.38.57:906][  0]LogAssetRegistry: Asset discovery search completed in 6.7882 seconds
[2022.08.22-18.38.57:909][  0]LogCollectionManager: Fixed up redirectors for 0 collections in 0.000002 seconds (updated 0 objects)
[2022.08.22-18.38.57:910][  0]LogContentStreaming: Texture pool size now 1000 MB
[2022.08.22-18.38.59:946][ 94]LogNiagara: Compiling System NiagaraSystem /Game/Cursor/FX_Cursor.FX_Cursor took 3.067818 sec, no shader worker used.
[2022.08.22-18.38.59:953][ 95]LogNavigationDataBuild: Navigation data generation finished in /Game/TopDown/Maps/TopDownMap.
[2022.08.22-18.39.07:054][513]LogPackageName: Warning: FPackagePath::TryFromMountedName was passed an ObjectPath (/Game/Blueprints/Assets/BP_Enemy.BP_Enemy) rather than a PackageName or FilePath; it will be converted to the PackageName. Accepting ObjectPaths is deprecated behavior and will be removed in a future release; TryFromMountedName will fail on ObjectPaths.
[2022.08.22-18.39.07:054][513]LogAssetEditorSubsystem: Opening Asset editor for Blueprint /Game/Blueprints/Assets/BP_Enemy.BP_Enemy
[2022.08.22-18.39.07:055][513]LogChaos: FPhysicsSolverBase::AsyncDt:-1.000000
[2022.08.22-18.39.07:941][513]LogPackageName: Warning: FPackagePath::TryFromMountedName was passed an ObjectPath (/Game/TopDown/Maps/TopDownMap.TopDownMap:PersistentLevel.TopDownMap) rather than a PackageName or FilePath; it will be converted to the PackageName. Accepting ObjectPaths is deprecated behavior and will be removed in a future release; TryFromMountedName will fail on ObjectPaths.
[2022.08.22-18.39.07:941][513]LogPackageName: Warning: FPackagePath::TryFromMountedName was passed an ObjectPath (/Game/Characters/Mannequins/Materials/Instances/Manny/MI_Manny_03.MI_Manny_03) rather than a PackageName or FilePath; it will be converted to the PackageName. Accepting ObjectPaths is deprecated behavior and will be removed in a future release; TryFromMountedName will fail on ObjectPaths.
[2022.08.22-18.39.07:941][513]LogAssetEditorSubsystem: Opening Asset editor for MaterialInstanceConstant /Game/Characters/Mannequins/Materials/Instances/Manny/MI_Manny_03.MI_Manny_03
[2022.08.22-18.39.07:950][513]LogChaos: FPhysicsSolverBase::AsyncDt:-1.000000
[2022.08.22-18.39.08:238][513]LogViewport: Scene viewport resized to 1335x894, mode Windowed.
[2022.08.22-18.39.08:329][513]LogSlate: Took 0.000189 seconds to synchronously load lazily loaded font '../../../Engine/Content/Slate/Fonts/Roboto-Light.ttf' (167K)
[2022.08.22-18.39.08:339][513]LogOutputDevice: Warning: 

Script Stack (0 frames):

[2022.08.22-18.39.08:413][513]LogStats: FPlatformStackWalk::StackWalkAndDump -  0.074 s
[2022.08.22-18.39.08:413][513]LogOutputDevice: Error: === Handled ensure: ===
[2022.08.22-18.39.08:413][513]LogOutputDevice: Error: 
[2022.08.22-18.39.08:413][513]LogOutputDevice: Error: Ensure condition failed: !CustomResetToDefault.IsSet() [File:D:\build\++UE5\Sync\Engine\Source\Editor\PropertyEditor\Private\DetailPropertyRow.cpp] [Line: 726]
[2022.08.22-18.39.08:413][513]LogOutputDevice: Error: Duplicate reset to default handlers set on both FDetailPropertyRow and CustomWidget()!
[2022.08.22-18.39.08:413][513]LogOutputDevice: Error: Stack: 
[2022.08.22-18.39.08:413][513]LogOutputDevice: Error: [Callstack] 0x00007ffebdbde99a UnrealEditor-PropertyEditor.dll!UnknownFunction []
[2022.08.22-18.39.08:413][513]LogOutputDevice: Error: [Callstack] 0x00007ffebdbadeb3 UnrealEditor-PropertyEditor.dll!UnknownFunction []
[2022.08.22-18.39.08:413][513]LogOutputDevice: Error: [Callstack] 0x00007ffebdbadddf UnrealEditor-PropertyEditor.dll!UnknownFunction []
[2022.08.22-18.39.08:413][513]LogOutputDevice: Error: [Callstack] 0x00007ffebde2cb40 UnrealEditor-PropertyEditor.dll!UnknownFunction []
[2022.08.22-18.39.08:413][513]LogOutputDevice: Error: [Callstack] 0x00007ffebdb97390 UnrealEditor-PropertyEditor.dll!UnknownFunction []
[2022.08.22-18.39.08:413][513]LogOutputDevice: Error: [Callstack] 0x00007ffebde9f1ec UnrealEditor-PropertyEditor.dll!UnknownFunction []
[2022.08.22-18.39.08:413][513]LogOutputDevice: Error: [Callstack] 0x00007ffebde5d496 UnrealEditor-PropertyEditor.dll!UnknownFunction []
[2022.08.22-18.39.08:413][513]LogOutputDevice: Error: [Callstack] 0x00007ffebde71c51 UnrealEditor-PropertyEditor.dll!UnknownFunction []
[2022.08.22-18.39.08:413][513]LogOutputDevice: Error: [Callstack] 0x00007ffebde73096 UnrealEditor-PropertyEditor.dll!UnknownFunction []
[2022.08.22-18.39.08:413][513]LogOutputDevice: Error: [Callstack] 0x00007ffebdeb51fa UnrealEditor-PropertyEditor.dll!UnknownFunction []
[2022.08.22-18.39.08:413][513]LogOutputDevice: Error: [Callstack] 0x00007ffecc6b742a UnrealEditor-Slate.dll!UnknownFunction []
[2022.08.22-18.39.08:413][513]LogOutputDevice: Error: [Callstack] 0x00007ffebdecd623 UnrealEditor-PropertyEditor.dll!UnknownFunction []
[2022.08.22-18.39.08:413][513]LogOutputDevice: Error: [Callstack] 0x00007ffecbf47163 UnrealEditor-SlateCore.dll!UnknownFunction []
[2022.08.22-18.39.08:413][513]LogOutputDevice: Error: [Callstack] 0x00007ffecbf44565 UnrealEditor-SlateCore.dll!UnknownFunction []
[2022.08.22-18.39.08:413][513]LogOutputDevice: Error: [Callstack] 0x00007ffecbf478e5 UnrealEditor-SlateCore.dll!UnknownFunction []
[2022.08.22-18.39.08:413][513]LogOutputDevice: Error: [Callstack] 0x00007ffecbf48569 UnrealEditor-SlateCore.dll!UnknownFunction []
[2022.08.22-18.39.08:413][513]LogOutputDevice: Error: [Callstack] 0x00007ffecbf4470b UnrealEditor-SlateCore.dll!UnknownFunction []
[2022.08.22-18.39.08:413][513]LogOutputDevice: Error: [Callstack] 0x00007ffecbf478e5 UnrealEditor-SlateCore.dll!UnknownFunction []
[2022.08.22-18.39.08:413][513]LogOutputDevice: Error: [Callstack] 0x00007ffecbf439cd UnrealEditor-SlateCore.dll!UnknownFunction []
[2022.08.22-18.39.08:413][513]LogOutputDevice: Error: [Callstack] 0x00007ffecbf478e5 UnrealEditor-SlateCore.dll!UnknownFunction []
[2022.08.22-18.39.08:413][513]LogOutputDevice: Error: [Callstack] 0x00007ffecbf439cd UnrealEditor-SlateCore.dll!UnknownFunction []
[2022.08.22-18.39.08:413][513]LogOutputDevice: Error: [Callstack] 0x00007ffecc5f6110 UnrealEditor-Slate.dll!UnknownFunction []
[2022.08.22-18.39.08:413][513]LogOutputDevice: Error: [Callstack] 0x00007ffecbf478e5 UnrealEditor-SlateCore.dll!UnknownFunction []
[2022.08.22-18.39.08:413][513]LogOutputDevice: Error: [Callstack] 0x00007ffecbf439cd UnrealEditor-SlateCore.dll!UnknownFunction []
[2022.08.22-18.39.08:413][513]LogOutputDevice: Error: [Callstack] 0x00007ffecc5f6110 UnrealEditor-Slate.dll!UnknownFunction []
[2022.08.22-18.39.08:413][513]LogOutputDevice: Error: [Callstack] 0x00007ffecbf478e5 UnrealEditor-SlateCore.dll!UnknownFunction []
[2022.08.22-18.39.08:413][513]LogOutputDevice: Error: [Callstack] 0x00007ffecbf44565 UnrealEditor-SlateCore.dll!UnknownFunction []
[2022.08.22-18.39.08:413][513]LogOutputDevice: Error: [Callstack] 0x00007ffecbf478e5 UnrealEditor-SlateCore.dll!UnknownFunction []
[2022.08.22-18.39.08:413][513]LogOutputDevice: Error: [Callstack] 0x00007ffecbf48569 UnrealEditor-SlateCore.dll!UnknownFunction []
[2022.08.22-18.39.08:413][513]LogOutputDevice: Error: [Callstack] 0x00007ffecbf4470b UnrealEditor-SlateCore.dll!UnknownFunction []
[2022.08.22-18.39.08:413][513]LogOutputDevice: Error: [Callstack] 0x00007ffecbf478e5 UnrealEditor-SlateCore.dll!UnknownFunction []
[2022.08.22-18.39.08:413][513]LogOutputDevice: Error: [Callstack] 0x00007ffecbf439cd UnrealEditor-SlateCore.dll!UnknownFunction []
[2022.08.22-18.39.08:413][513]LogOutputDevice: Error: [Callstack] 0x00007ffecbf478e5 UnrealEditor-SlateCore.dll!UnknownFunction []
[2022.08.22-18.39.08:413][513]LogOutputDevice: Error: [Callstack] 0x00007ffecbf48569 UnrealEditor-SlateCore.dll!UnknownFunction []
[2022.08.22-18.39.08:413][513]LogOutputDevice: Error: [Callstack] 0x00007ffecc6754ec UnrealEditor-Slate.dll!UnknownFunction []
[2022.08.22-18.39.08:413][513]LogOutputDevice: Error: [Callstack] 0x00007ffecbf478e5 UnrealEditor-SlateCore.dll!UnknownFunction []
[2022.08.22-18.39.08:413][513]LogOutputDevice: Error: [Callstack] 0x00007ffecbf48569 UnrealEditor-SlateCore.dll!UnknownFunction []
[2022.08.22-18.39.08:413][513]LogOutputDevice: Error: [Callstack] 0x00007ffecbf4470b UnrealEditor-SlateCore.dll!UnknownFunction []
[2022.08.22-18.39.08:413][513]LogOutputDevice: Error: [Callstack] 0x00007ffecbf478e5 UnrealEditor-SlateCore.dll!UnknownFunction []
[2022.08.22-18.39.08:413][513]LogOutputDevice: Error: [Callstack] 0x00007ffecbf44565 UnrealEditor-SlateCore.dll!UnknownFunction []
[2022.08.22-18.39.08:413][513]LogOutputDevice: Error: [Callstack] 0x00007ffecbf478e5 UnrealEditor-SlateCore.dll!UnknownFunction []
[2022.08.22-18.39.08:413][513]LogOutputDevice: Error: [Callstack] 0x00007ffecbf439cd UnrealEditor-SlateCore.dll!UnknownFunction []
[2022.08.22-18.39.08:413][513]LogOutputDevice: Error: [Callstack] 0x00007ffecbf478e5 UnrealEditor-SlateCore.dll!UnknownFunction []
[2022.08.22-18.39.08:413][513]LogOutputDevice: Error: [Callstack] 0x00007ffecbf48569 UnrealEditor-SlateCore.dll!UnknownFunction []
[2022.08.22-18.39.08:413][513]LogOutputDevice: Error: [Callstack] 0x00007ffecbf4470b UnrealEditor-SlateCore.dll!UnknownFunction []
[2022.08.22-18.39.08:413][513]LogOutputDevice: Error: [Callstack] 0x00007ffecbf478e5 UnrealEditor-SlateCore.dll!UnknownFunction []
[2022.08.22-18.39.08:413][513]LogOutputDevice: Error: [Callstack] 0x00007ffecbf439cd UnrealEditor-SlateCore.dll!UnknownFunction []
[2022.08.22-18.39.08:413][513]LogOutputDevice: Error: [Callstack] 0x00007ffecbf478e5 UnrealEditor-SlateCore.dll!UnknownFunction []
[2022.08.22-18.39.08:413][513]LogOutputDevice: Error: [Callstack] 0x00007ffecbf439cd UnrealEditor-SlateCore.dll!UnknownFunction []
[2022.08.22-18.39.08:413][513]LogOutputDevice: Error: [Callstack] 0x00007ffecc5f6110 UnrealEditor-Slate.dll!UnknownFunction []
[2022.08.22-18.39.08:413][513]LogOutputDevice: Error: [Callstack] 0x00007ffecbf478e5 UnrealEditor-SlateCore.dll!UnknownFunction []
[2022.08.22-18.39.08:413][513]LogOutputDevice: Error: [Callstack] 0x00007ffecbf44565 UnrealEditor-SlateCore.dll!UnknownFunction []
[2022.08.22-18.39.08:413][513]LogOutputDevice: Error: [Callstack] 0x00007ffecbf478e5 UnrealEditor-SlateCore.dll!UnknownFunction []
[2022.08.22-18.39.08:413][513]LogOutputDevice: Error: [Callstack] 0x00007ffecbf48569 UnrealEditor-SlateCore.dll!UnknownFunction []
[2022.08.22-18.39.08:413][513]LogOutputDevice: Error: [Callstack] 0x00007ffecbf4470b UnrealEditor-SlateCore.dll!UnknownFunction []
[2022.08.22-18.39.08:413][513]LogOutputDevice: Error: [Callstack] 0x00007ffecbf478e5 UnrealEditor-SlateCore.dll!UnknownFunction []
[2022.08.22-18.39.08:413][513]LogOutputDevice: Error: [Callstack] 0x00007ffecbf439cd UnrealEditor-SlateCore.dll!UnknownFunction []
[2022.08.22-18.39.08:413][513]LogOutputDevice: Error: [Callstack] 0x00007ffecbf478e5 UnrealEditor-SlateCore.dll!UnknownFunction []
[2022.08.22-18.39.08:413][513]LogOutputDevice: Error: [Callstack] 0x00007ffecbf48569 UnrealEditor-SlateCore.dll!UnknownFunction []
[2022.08.22-18.39.08:413][513]LogOutputDevice: Error: [Callstack] 0x00007ffecc6754ec UnrealEditor-Slate.dll!UnknownFunction []
[2022.08.22-18.39.08:413][513]LogOutputDevice: Error: [Callstack] 0x00007ffecbf478e5 UnrealEditor-SlateCore.dll!UnknownFunction []
[2022.08.22-18.39.08:413][513]LogOutputDevice: Error: [Callstack] 0x00007ffecbf48569 UnrealEditor-SlateCore.dll!UnknownFunction []
[2022.08.22-18.39.08:413][513]LogOutputDevice: Error: [Callstack] 0x00007ffecbf4470b UnrealEditor-SlateCore.dll!UnknownFunction []
[2022.08.22-18.39.08:413][513]LogOutputDevice: Error: [Callstack] 0x00007ffecbf478e5 UnrealEditor-SlateCore.dll!UnknownFunction []
[2022.08.22-18.39.08:413][513]LogOutputDevice: Error: [Callstack] 0x00007ffecbf44565 UnrealEditor-SlateCore.dll!UnknownFunction []
[2022.08.22-18.39.08:413][513]LogOutputDevice: Error: [Callstack] 0x00007ffecbf478e5 UnrealEditor-SlateCore.dll!UnknownFunction []
[2022.08.22-18.39.08:413][513]LogOutputDevice: Error: [Callstack] 0x00007ffecbf439cd UnrealEditor-SlateCore.dll!UnknownFunction []
[2022.08.22-18.39.08:413][513]LogOutputDevice: Error: [Callstack] 0x00007ffecbf478e5 UnrealEditor-SlateCore.dll!UnknownFunction []
[2022.08.22-18.39.08:413][513]LogOutputDevice: Error: [Callstack] 0x00007ffecbf48569 UnrealEditor-SlateCore.dll!UnknownFunction []
[2022.08.22-18.39.08:413][513]LogOutputDevice: Error: [Callstack] 0x00007ffecbf4470b UnrealEditor-SlateCore.dll!UnknownFunction []
[2022.08.22-18.39.08:413][513]LogOutputDevice: Error: [Callstack] 0x00007ffecbf478e5 UnrealEditor-SlateCore.dll!UnknownFunction []
[2022.08.22-18.39.08:413][513]LogOutputDevice: Error: [Callstack] 0x00007ffecbf48569 UnrealEditor-SlateCore.dll!UnknownFunction []
[2022.08.22-18.39.08:413][513]LogOutputDevice: Error: [Callstack] 0x00007ffecbf4470b UnrealEditor-SlateCore.dll!UnknownFunction []
[2022.08.22-18.39.08:413][513]LogOutputDevice: Error: [Callstack] 0x00007ffecbf478e5 UnrealEditor-SlateCore.dll!UnknownFunction []
[2022.08.22-18.39.08:413][513]LogOutputDevice: Error: [Callstack] 0x00007ffecbf44565 UnrealEditor-SlateCore.dll!UnknownFunction []
[2022.08.22-18.39.08:413][513]LogOutputDevice: Error: [Callstack] 0x00007ffecbf478e5 UnrealEditor-SlateCore.dll!UnknownFunction []
[2022.08.22-18.39.08:413][513]LogOutputDevice: Error: [Callstack] 0x00007ffecbf439cd UnrealEditor-SlateCore.dll!UnknownFunction []
[2022.08.22-18.39.08:413][513]LogOutputDevice: Error: [Callstack] 0x00007ffecbf478e5 UnrealEditor-SlateCore.dll!UnknownFunction []
[2022.08.22-18.39.08:413][513]LogOutputDevice: Error: [Callstack] 0x00007ffecbf48684 UnrealEditor-SlateCore.dll!UnknownFunction []
[2022.08.22-18.39.08:413][513]LogOutputDevice: Error: [Callstack] 0x00007ffecbdece1a UnrealEditor-SlateCore.dll!UnknownFunction []
[2022.08.22-18.39.08:413][513]LogOutputDevice: Error: [Callstack] 0x00007ffecbf48945 UnrealEditor-SlateCore.dll!UnknownFunction []
[2022.08.22-18.39.08:413][513]LogOutputDevice: Error: [Callstack] 0x00007ffecc3a904e UnrealEditor-Slate.dll!UnknownFunction []
[2022.08.22-18.39.08:413][513]LogOutputDevice: Error: [Callstack] 0x00007ffecc3a94ca UnrealEditor-Slate.dll!UnknownFunction []
[2022.08.22-18.39.08:413][513]LogOutputDevice: Error: [Callstack] 0x00007ffecc3d4787 UnrealEditor-Slate.dll!UnknownFunction []
[2022.08.22-18.39.08:413][513]LogOutputDevice: Error: [Callstack] 0x00007ffecc3a9b14 UnrealEditor-Slate.dll!UnknownFunction []
[2022.08.22-18.39.08:413][513]LogOutputDevice: Error: [Callstack] 0x00007ffecc3fafa9 UnrealEditor-Slate.dll!UnknownFunction []
[2022.08.22-18.39.08:413][513]LogOutputDevice: Error: [Callstack] 0x00007ffecc3fa738 UnrealEditor-Slate.dll!UnknownFunction []
[2022.08.22-18.39.08:413][513]LogOutputDevice: Error: [Callstack] 0x00007ff799db8e7d UnrealEditor.exe!UnknownFunction []
[2022.08.22-18.39.08:413][513]LogOutputDevice: Error: [Callstack] 0x00007ff799dd0d9c UnrealEditor.exe!UnknownFunction []
[2022.08.22-18.39.08:413][513]LogOutputDevice: Error: [Callstack] 0x00007ff799dd0e8a UnrealEditor.exe!UnknownFunction []
[2022.08.22-18.39.08:413][513]LogOutputDevice: Error: [Callstack] 0x00007ff799dd3c4d UnrealEditor.exe!UnknownFunction []
[2022.08.22-18.39.08:413][513]LogOutputDevice: Error: [Callstack] 0x00007ff799de5564 UnrealEditor.exe!UnknownFunction []
[2022.08.22-18.39.08:413][513]LogOutputDevice: Error: [Callstack] 0x00007ff799de8736 UnrealEditor.exe!UnknownFunction []
[2022.08.22-18.39.08:413][513]LogOutputDevice: Error: [Callstack] 0x00007fff540e54e0 KERNEL32.DLL!UnknownFunction []
[2022.08.22-18.39.08:413][513]LogOutputDevice: Error: [Callstack] 0x00007fff54e8485b ntdll.dll!UnknownFunction []
[2022.08.22-18.39.08:413][513]LogOutputDevice: Error: 
