Containers:
  [+] MainContainer:
   |            ID: 0x0000000000000000
   |        Bounds: IsValid=false, Min=(X=0.000 Y=0.000 Z=0.000), Max=(X=0.000 Y=0.000 Z=0.000)
   |     Transform: 0.000000,0.000000,0.000000|0.000000,0.000000,-0.000000|1.000000,1.000000,1.000000
   |     Container: /Game/TopDown/Maps/TopDownMap
   |  ActorDescs:
   |      - Guid:0B15F021489E660010491AA38DBCEC68 Class:StaticMeshActor Name:StaticMeshActor_20 SpatiallyLoaded:true Bounds:IsValid=true, Min=(X=2000.000 Y=600.000 Z=0.000), Max=(X=2400.000 Y=1000.000 Z=200.000) RuntimeGrid:None EditorOnly:false LevelBoundsRelevant:true HLODRelevant:true FolderPath:Block01 FolderGuid:4C556963462B5D49496AD286A4690C47 Parent:00000000000000000000000000000000
   |      - Guid:0F4324B34E091887A24AD9995AE727D1 Class:StaticMeshActor Name:StaticMeshActor_23 SpatiallyLoaded:true Bounds:IsValid=true, Min=(X=2900.000 Y=100.000 Z=0.000), Max=(X=3000.000 Y=3400.000 Z=400.000) RuntimeGrid:None EditorOnly:false LevelBoundsRelevant:true HLODRelevant:true FolderPath:Playground FolderGuid:9FE5E8B349AF71F05F2688921F3F2AC5 Parent:00000000000000000000000000000000
   |      - Guid:106563D5414FAD0844FBDCBEAC7AF29D Class:StaticMeshActor Name:StaticMeshActor_42 SpatiallyLoaded:true Bounds:IsValid=true, Min=(X=761.762 Y=2853.712 Z=0.063), Max=(X=902.646 Y=2994.595 Z=100.063) RuntimeGrid:None EditorOnly:false LevelBoundsRelevant:true HLODRelevant:false FolderPath:None FolderGuid:00000000000000000000000000000000 Parent:00000000000000000000000000000000
   |      - Guid:10CA039A41B87B91B0C31BAD2DEC9568 Class:StaticMeshActor Name:StaticMeshActor_28 SpatiallyLoaded:true Bounds:IsValid=true, Min=(X=2400.000 Y=400.000 Z=0.000), Max=(X=2500.000 Y=500.000 Z=200.000) RuntimeGrid:None EditorOnly:false LevelBoundsRelevant:true HLODRelevant:true FolderPath:Block01 FolderGuid:4C556963462B5D49496AD286A4690C47 Parent:00000000000000000000000000000000
   |      - Guid:147C8D134B12D635012D5F8C57D2C96F Class:PostProcessVolume Name:PostProcessVolume_1 SpatiallyLoaded:false Bounds:IsValid=true, Min=(X=0.000 Y=0.000 Z=400.000), Max=(X=200.000 Y=200.000 Z=600.000) RuntimeGrid:None EditorOnly:false LevelBoundsRelevant:false HLODRelevant:false FolderPath:Lighting FolderGuid:4C9334684BA61B42C769F799D2576455 Parent:00000000000000000000000000000000
   |      - Guid:1742DF43475F097453197AA79C7473D9 Class:SkyLight Name:SkyLight_1 SpatiallyLoaded:false Bounds:IsValid=true, Min=(X=0.000 Y=0.000 Z=690.000), Max=(X=0.000 Y=0.000 Z=690.000) RuntimeGrid:None EditorOnly:false LevelBoundsRelevant:false HLODRelevant:false FolderPath:Lighting FolderGuid:4C9334684BA61B42C769F799D2576455 Parent:00000000000000000000000000000000
   |      - Guid:18269C8E4EC7873D8D200DB56B2399D6 Class:Character Name:BP_Enemy_C_UAID_145AFC4CEF02472F01_1604096288 SpatiallyLoaded:true Bounds:IsValid=true, Min=(X=1197.216 Y=1147.740 Z=-0.973), Max=(X=1281.216 Y=1231.740 Z=192.000) RuntimeGrid:None EditorOnly:false LevelBoundsRelevant:true HLODRelevant:false FolderPath:None FolderGuid:00000000000000000000000000000000 Parent:00000000000000000000000000000000
   |      - Guid:1E0EE56B4C8ABFE7B943DCBC59077E0C Class:StaticMeshActor Name:StaticMeshActor_3 SpatiallyLoaded:true Bounds:IsValid=true, Min=(X=1350.000 Y=2950.000 Z=0.000), Max=(X=1450.000 Y=3050.000 Z=300.000) RuntimeGrid:None EditorOnly:false LevelBoundsRelevant:true HLODRelevant:true FolderPath:Pillars FolderGuid:BB8AF4C246C38D173850E8B115A3DCFE Parent:00000000000000000000000000000000
   |      - Guid:1FEC8FAC495CEF0CE32492ADCBB96BAE Class:NavLinkProxy Name:NavLinkProxy_3 SpatiallyLoaded:true Bounds:IsValid=true, Min=(X=2240.000 Y=1030.000 Z=90.000), Max=(X=2240.000 Y=1030.000 Z=90.000) RuntimeGrid:None EditorOnly:false LevelBoundsRelevant:true HLODRelevant:false FolderPath:Navigation FolderGuid:AE45D61F453CC144CF8289862C276E89 Parent:00000000000000000000000000000000
   |      - Guid:214D08A84E58D4159589E3A962C23E03 Class:StaticMeshActor Name:StaticMeshActor_35 SpatiallyLoaded:true Bounds:IsValid=true, Min=(X=1750.000 Y=2750.000 Z=0.000), Max=(X=1850.000 Y=2850.000 Z=300.000) RuntimeGrid:None EditorOnly:false LevelBoundsRelevant:true HLODRelevant:true FolderPath:Pillars FolderGuid:BB8AF4C246C38D173850E8B115A3DCFE Parent:00000000000000000000000000000000
   |      - Guid:2169CB5C470E0E674279BA96829753DD Class:StaticMeshActor Name:StaticMeshActor_17 SpatiallyLoaded:true Bounds:IsValid=true, Min=(X=0.000 Y=0.000 Z=-50.000), Max=(X=3000.000 Y=3500.000 Z=0.000) RuntimeGrid:None EditorOnly:false LevelBoundsRelevant:true HLODRelevant:true FolderPath:Playground FolderGuid:9FE5E8B349AF71F05F2688921F3F2AC5 Parent:00000000000000000000000000000000
   |      - Guid:2DF0D95440BE0EDA81652F860DC7268E Class:WorldDataLayers Name:WorldDataLayers SpatiallyLoaded:false Bounds:IsValid=true, Min=(X=0.000 Y=0.000 Z=0.000), Max=(X=0.000 Y=0.000 Z=0.000) RuntimeGrid:None EditorOnly:false LevelBoundsRelevant:false HLODRelevant:false FolderPath:None FolderGuid:00000000000000000000000000000000 Parent:00000000000000000000000000000000
   |      - Guid:306929B142C99B3AD97B3C9F251C2129 Class:StaticMeshActor Name:StaticMeshActor_22 SpatiallyLoaded:true Bounds:IsValid=true, Min=(X=-0.000 Y=100.000 Z=0.000), Max=(X=100.000 Y=3400.000 Z=400.000) RuntimeGrid:None EditorOnly:false LevelBoundsRelevant:true HLODRelevant:true FolderPath:Playground FolderGuid:9FE5E8B349AF71F05F2688921F3F2AC5 Parent:00000000000000000000000000000000
   |      - Guid:5B01E70A40FD2B666134A1B86F6B582E Class:StaticMeshActor Name:StaticMeshActor_21 SpatiallyLoaded:true Bounds:IsValid=true, Min=(X=1400.000 Y=600.000 Z=0.000), Max=(X=1600.000 Y=1000.000 Z=100.000) RuntimeGrid:None EditorOnly:false LevelBoundsRelevant:true HLODRelevant:true FolderPath:Block01 FolderGuid:4C556963462B5D49496AD286A4690C47 Parent:00000000000000000000000000000000
   |      - Guid:6252C7D64ACF162A73EE65B11FE214D1 Class:SkyAtmosphere Name:SkyAtmosphere_1 SpatiallyLoaded:false Bounds:IsValid=true, Min=(X=0.000 Y=0.000 Z=1020.000), Max=(X=0.000 Y=0.000 Z=1020.000) RuntimeGrid:None EditorOnly:false LevelBoundsRelevant:false HLODRelevant:false FolderPath:Lighting FolderGuid:4C9334684BA61B42C769F799D2576455 Parent:00000000000000000000000000000000
   |      - Guid:66BCBF874D2A22ADC6523B95EE812CA3 Class:StaticMeshActor Name:StaticMeshActor_UAID_A4AE111137DC5CFB00_1660657071 SpatiallyLoaded:true Bounds:IsValid=true, Min=(X=-1638400.000 Y=-1638400.000 Z=-1638400.000), Max=(X=1638400.000 Y=1638400.000 Z=1638400.000) RuntimeGrid:None EditorOnly:false LevelBoundsRelevant:true HLODRelevant:true FolderPath:Lighting FolderGuid:4C9334684BA61B42C769F799D2576455 Parent:00000000000000000000000000000000
   |      - Guid:71C8C39C4EFCCD178DE2D08AD6A4DCDB Class:StaticMeshActor Name:StaticMeshActor_40 SpatiallyLoaded:true Bounds:IsValid=true, Min=(X=2250.000 Y=2650.000 Z=0.000), Max=(X=2350.000 Y=2750.000 Z=300.000) RuntimeGrid:None EditorOnly:false LevelBoundsRelevant:true HLODRelevant:true FolderPath:Pillars FolderGuid:BB8AF4C246C38D173850E8B115A3DCFE Parent:00000000000000000000000000000000
   |      - Guid:7538BFCA43D3EA3EA8BCDD88D63F5EAA Class:StaticMeshActor Name:StaticMeshActor_34 SpatiallyLoaded:true Bounds:IsValid=true, Min=(X=1850.000 Y=2350.000 Z=0.000), Max=(X=1950.000 Y=2450.000 Z=300.000) RuntimeGrid:None EditorOnly:false LevelBoundsRelevant:true HLODRelevant:true FolderPath:Pillars FolderGuid:BB8AF4C246C38D173850E8B115A3DCFE Parent:00000000000000000000000000000000
   |      - Guid:77F893B3468595EE782136AD620D7EF4 Class:VolumetricCloud Name:VolumetricCloud_0 SpatiallyLoaded:false Bounds:IsValid=true, Min=(X=0.000 Y=0.000 Z=820.000), Max=(X=0.000 Y=0.000 Z=820.000) RuntimeGrid:None EditorOnly:false LevelBoundsRelevant:false HLODRelevant:false FolderPath:Lighting FolderGuid:4C9334684BA61B42C769F799D2576455 Parent:00000000000000000000000000000000
   |      - Guid:8248E561477FE7EFFBDDA38A2EF2E606 Class:StaticMeshActor Name:StaticMeshActor_1 SpatiallyLoaded:true Bounds:IsValid=true, Min=(X=1900.000 Y=600.000 Z=0.000), Max=(X=2000.000 Y=900.000 Z=200.000) RuntimeGrid:None EditorOnly:false LevelBoundsRelevant:true HLODRelevant:true FolderPath:Block01 FolderGuid:4C556963462B5D49496AD286A4690C47 Parent:00000000000000000000000000000000
   |      - Guid:87AB00FC44D67BD6908DBF89A9949083 Class:StaticMeshActor Name:StaticMeshActor_2 SpatiallyLoaded:true Bounds:IsValid=true, Min=(X=1350.000 Y=2450.000 Z=0.000), Max=(X=1450.000 Y=2550.000 Z=300.000) RuntimeGrid:None EditorOnly:false LevelBoundsRelevant:true HLODRelevant:true FolderPath:Pillars FolderGuid:BB8AF4C246C38D173850E8B115A3DCFE Parent:00000000000000000000000000000000
   |      - Guid:967973B24ED0095A56A3D9A2B29C7E24 Class:StaticMeshActor Name:StaticMeshActor_0 SpatiallyLoaded:true Bounds:IsValid=true, Min=(X=1900.000 Y=900.000 Z=0.000), Max=(X=2000.000 Y=1000.000 Z=200.000) RuntimeGrid:None EditorOnly:false LevelBoundsRelevant:true HLODRelevant:true FolderPath:Block01 FolderGuid:4C556963462B5D49496AD286A4690C47 Parent:00000000000000000000000000000000
   |      - Guid:9F5C85AD4CCA70385561559C9C8DBB03 Class:StaticMeshActor Name:StaticMeshActor_24 SpatiallyLoaded:true Bounds:IsValid=true, Min=(X=2400.000 Y=500.000 Z=0.000), Max=(X=2500.000 Y=900.000 Z=200.000) RuntimeGrid:None EditorOnly:false LevelBoundsRelevant:true HLODRelevant:true FolderPath:Block01 FolderGuid:4C556963462B5D49496AD286A4690C47 Parent:00000000000000000000000000000000
   |      - Guid:AD8D621045E8BD19978AA3B098808D36 Class:StaticMeshActor Name:StaticMeshActor_59 SpatiallyLoaded:true Bounds:IsValid=true, Min=(X=663.409 Y=2784.238 Z=0.063), Max=(X=804.292 Y=2925.121 Z=100.063) RuntimeGrid:None EditorOnly:false LevelBoundsRelevant:true HLODRelevant:false FolderPath:None FolderGuid:00000000000000000000000000000000 Parent:00000000000000000000000000000000
   |      - Guid:AE4BDE57491C67C1E7AFD4A09A9CADC1 Class:StaticMeshActor Name:StaticMeshActor_66 SpatiallyLoaded:true Bounds:IsValid=true, Min=(X=2550.000 Y=2950.000 Z=0.000), Max=(X=2650.000 Y=3050.000 Z=300.000) RuntimeGrid:None EditorOnly:false LevelBoundsRelevant:true HLODRelevant:true FolderPath:Pillars FolderGuid:BB8AF4C246C38D173850E8B115A3DCFE Parent:00000000000000000000000000000000
   |      - Guid:AE92EF614644F3E97ECD6E8F3B7E4798 Class:StaticMeshActor Name:StaticMeshActor_65 SpatiallyLoaded:true Bounds:IsValid=true, Min=(X=2419.765 Y=1390.593 Z=0.063), Max=(X=2547.936 Y=1518.765 Z=100.063) RuntimeGrid:None EditorOnly:false LevelBoundsRelevant:true HLODRelevant:false FolderPath:None FolderGuid:00000000000000000000000000000000 Parent:00000000000000000000000000000000
   |      - Guid:AECEEEE741E6DE68F6843FA49564A956 Class:DirectionalLight Name:DirectionalLight_1 SpatiallyLoaded:false Bounds:IsValid=true, Min=(X=-1048576.000 Y=-1048576.000 Z=-1048576.000), Max=(X=1048576.000 Y=1048576.000 Z=1048576.000) RuntimeGrid:None EditorOnly:false LevelBoundsRelevant:false HLODRelevant:false FolderPath:Lighting FolderGuid:4C9334684BA61B42C769F799D2576455 Parent:00000000000000000000000000000000
   |      - Guid:C6BDA3BE4C03EDB4C4B262885F38FE33 Class:TargetPoint Name:TargetPoint_UAID_145AFC4CEF021F2F01_1836058251 SpatiallyLoaded:true Bounds:IsValid=true, Min=(X=171.131 Y=440.011 Z=15.800), Max=(X=2731.131 Y=3000.011 Z=22.200) RuntimeGrid:None EditorOnly:false LevelBoundsRelevant:true HLODRelevant:false FolderPath:None FolderGuid:00000000000000000000000000000000 Parent:00000000000000000000000000000000
   |      - Guid:C81786A4417C98DC3952D7BB9D023436 Class:StaticMeshActor Name:StaticMeshActor_25 SpatiallyLoaded:true Bounds:IsValid=true, Min=(X=1400.000 Y=400.000 Z=0.000), Max=(X=2400.000 Y=600.000 Z=100.000) RuntimeGrid:None EditorOnly:false LevelBoundsRelevant:true HLODRelevant:true FolderPath:Block01 FolderGuid:4C556963462B5D49496AD286A4690C47 Parent:00000000000000000000000000000000
   |      - Guid:CCDD89584E0A9025F52AEDA51D60CA54 Class:NavMeshBoundsVolume Name:NavMeshBoundsVolume_1 SpatiallyLoaded:false Bounds:IsValid=true, Min=(X=-100.000 Y=-100.000 Z=-110.000), Max=(X=3100.000 Y=3600.000 Z=390.000) RuntimeGrid:None EditorOnly:false LevelBoundsRelevant:false HLODRelevant:false FolderPath:Navigation FolderGuid:AE45D61F453CC144CF8289862C276E89 Parent:00000000000000000000000000000000
   |      - Guid:D24D61B944EF71BE7BC469B7EB239299 Class:ExponentialHeightFog Name:ExponentialHeightFog_1 SpatiallyLoaded:false Bounds:IsValid=true, Min=(X=-5600.000 Y=-50.000 Z=-6850.000), Max=(X=-5600.000 Y=-50.000 Z=-6850.000) RuntimeGrid:None EditorOnly:false LevelBoundsRelevant:false HLODRelevant:false FolderPath:Lighting FolderGuid:4C9334684BA61B42C769F799D2576455 Parent:00000000000000000000000000000000
   |      - Guid:D3B17C8E4BDF6B6423A047B50448A521 Class:StaticMeshActor Name:StaticMeshActor_38 SpatiallyLoaded:true Bounds:IsValid=true, Min=(X=2250.000 Y=1950.000 Z=0.000), Max=(X=2350.000 Y=2050.000 Z=300.000) RuntimeGrid:None EditorOnly:false LevelBoundsRelevant:true HLODRelevant:true FolderPath:Pillars FolderGuid:BB8AF4C246C38D173850E8B115A3DCFE Parent:00000000000000000000000000000000
   |      - Guid:D59F2DEE4227548CFA939EAA6B6C3948 Class:StaticMeshActor Name:StaticMeshActor_39 SpatiallyLoaded:true Bounds:IsValid=true, Min=(X=2450.000 Y=2350.000 Z=0.000), Max=(X=2550.000 Y=2450.000 Z=300.000) RuntimeGrid:None EditorOnly:false LevelBoundsRelevant:true HLODRelevant:true FolderPath:Pillars FolderGuid:BB8AF4C246C38D173850E8B115A3DCFE Parent:00000000000000000000000000000000
   |      - Guid:E3A254A24FEC950D1869E484CB762659 Class:StaticMeshActor Name:StaticMeshActor_37 SpatiallyLoaded:true Bounds:IsValid=true, Min=(X=1650.000 Y=1950.000 Z=0.000), Max=(X=1750.000 Y=2050.000 Z=300.000) RuntimeGrid:None EditorOnly:false LevelBoundsRelevant:true HLODRelevant:true FolderPath:Pillars FolderGuid:BB8AF4C246C38D173850E8B115A3DCFE Parent:00000000000000000000000000000000
   |      - Guid:E9A7CC6F4BA1231ED60208AB9C648293 Class:StaticMeshActor Name:StaticMeshActor_44 SpatiallyLoaded:true Bounds:IsValid=true, Min=(X=711.512 Y=2824.945 Z=100.063), Max=(X=848.115 Y=2961.548 Z=200.063) RuntimeGrid:None EditorOnly:false LevelBoundsRelevant:true HLODRelevant:false FolderPath:None FolderGuid:00000000000000000000000000000000 Parent:00000000000000000000000000000000
   |      - Guid:E9F51259425B785A35C436A5559AD7B4 Class:StaticMeshActor Name:StaticMeshActor_19 SpatiallyLoaded:true Bounds:IsValid=true, Min=(X=0.000 Y=3400.000 Z=0.000), Max=(X=3000.000 Y=3500.000 Z=400.000) RuntimeGrid:None EditorOnly:false LevelBoundsRelevant:true HLODRelevant:true FolderPath:Playground FolderGuid:9FE5E8B349AF71F05F2688921F3F2AC5 Parent:00000000000000000000000000000000
   |      - Guid:EBDD3DE7460B99163A5FD58EFC8EA671 Class:StaticMeshActor Name:StaticMeshActor_29 SpatiallyLoaded:true Bounds:IsValid=true, Min=(X=2400.000 Y=900.000 Z=0.000), Max=(X=2500.000 Y=1000.000 Z=200.000) RuntimeGrid:None EditorOnly:false LevelBoundsRelevant:true HLODRelevant:true FolderPath:Block01 FolderGuid:4C556963462B5D49496AD286A4690C47 Parent:00000000000000000000000000000000
   |      - Guid:ED702DEB4F4A6D94A5DB4F9C337C2079 Class:TextRenderActor Name:TextRenderActor_0 SpatiallyLoaded:true Bounds:IsValid=true, Min=(X=-0.100 Y=1100.000 Z=65.013), Max=(X=-0.100 Y=2225.000 Z=215.013) RuntimeGrid:None EditorOnly:false LevelBoundsRelevant:true HLODRelevant:false FolderPath:None FolderGuid:00000000000000000000000000000000 Parent:00000000000000000000000000000000
   |      - Guid:F07559B14CE9ADE1215992AA417A945E Class:StaticMeshActor Name:StaticMeshActor_18 SpatiallyLoaded:true Bounds:IsValid=true, Min=(X=0.000 Y=0.000 Z=0.000), Max=(X=3000.000 Y=100.000 Z=400.000) RuntimeGrid:None EditorOnly:false LevelBoundsRelevant:true HLODRelevant:true FolderPath:Playground FolderGuid:9FE5E8B349AF71F05F2688921F3F2AC5 Parent:00000000000000000000000000000000
   |      - Guid:F33CC5014C49925B3A9D52A063AF483F Class:PlayerStart Name:PlayerStart_0 SpatiallyLoaded:false Bounds:IsValid=true, Min=(X=960.000 Y=1770.000 Z=0.013), Max=(X=1040.000 Y=1850.000 Z=184.013) RuntimeGrid:None EditorOnly:false LevelBoundsRelevant:true HLODRelevant:false FolderPath:None FolderGuid:00000000000000000000000000000000 Parent:00000000000000000000000000000000
   |      - Guid:F631A1FD49D9396A89472DB2E28EB965 Class:StaticMeshActor Name:StaticMeshActor_26 SpatiallyLoaded:true Bounds:IsValid=true, Min=(X=1600.000 Y=400.000 Z=100.000), Max=(X=1900.000 Y=600.000 Z=200.000) RuntimeGrid:None EditorOnly:false LevelBoundsRelevant:true HLODRelevant:true FolderPath:Block01 FolderGuid:4C556963462B5D49496AD286A4690C47 Parent:00000000000000000000000000000000
   |      - Guid:FA53012A44557D60E21D1B8B9D0C5141 Class:StaticMeshActor Name:StaticMeshActor_27 SpatiallyLoaded:true Bounds:IsValid=true, Min=(X=1900.000 Y=400.000 Z=100.000), Max=(X=2400.000 Y=600.000 Z=200.000) RuntimeGrid:None EditorOnly:false LevelBoundsRelevant:true HLODRelevant:true FolderPath:Block01 FolderGuid:4C556963462B5D49496AD286A4690C47 Parent:00000000000000000000000000000000
